<svg xmlns="http://www.w3.org/2000/svg" width="109.674" height="137.625" viewBox="0 0 109.674 137.625">
  <g id="voActive" transform="translate(0.371 1280.368)">
    <path id="Path_189" data-name="Path 189" d="M49.285-1279.706c-5.762.812-10.039,3.834-11.648,8.255-.289.812-.3.95-.344,9.974-.028,8.3-.014,9.162.179,9.162s.206.117.179.662l-.041.673-1.128.032-1.128.032-.041-.94a2.3,2.3,0,0,0-.138-.918c-.069.021-.7.032-1.416.032H32.452v1.815h-.688c-1.073,0-1.238.192-1.238,1.442,0,1.228.179,1.442,1.265,1.442h.66v17.054c0,18.207,0,17.983.674,20.022,1.348,4.058,5.171,7.635,10.19,9.536a26.179,26.179,0,0,0,4.717,1.228l.784.117v21.977l-.44.053c-.248.032-1.2.085-2.1.117-1.788.075-6.381.406-8.045.6-3.672.4-6.766.822-9.351,1.271-10.892,1.869-19.212,4.773-24.08,8.415-2.448,1.826-3.809,3.492-4.4,5.414-1.128,3.695,1.747,7.55,8.127,10.86,7.44,3.866,19.335,6.6,33.486,7.71,4.483.352,6.752.427,12.446.427a143.138,143.138,0,0,0,21.343-1.378,90.452,90.452,0,0,0,20.3-4.859c9.186-3.545,13.793-8.276,12.418-12.761-.591-1.922-1.953-3.588-4.4-5.414a32.006,32.006,0,0,0-7.852-4.154c-6.738-2.616-14.673-4.336-25.579-5.532-3.424-.384-9.86-.737-14.1-.79l-2.063-.021-.041-10.967-.028-10.967.784-.117a24.372,24.372,0,0,0,7.88-2.712,15.862,15.862,0,0,0,6.931-7.774c.784-2.125.77-1.645.77-20.257v-17.1h1.238a7.844,7.844,0,0,0,1.568-.118c.5-.182.674-.619.605-1.548-.069-1.121-.22-1.217-2.049-1.217H70.82v-1.869l-1.4.021-1.416.011-.041.918-.041.918H65.732v-.737c0-.417.055-.78.138-.812.193-.1.193-16.52,0-17.641a12.977,12.977,0,0,0-1.334-3.5,14.085,14.085,0,0,0-8.237-5.617A18.749,18.749,0,0,0,49.285-1279.706Zm-11.579,48.342.041,16.691.385.961c1.334,3.332,4.126,5.777,8.086,7.091a15.353,15.353,0,0,0,5.556.8,15.865,15.865,0,0,0,7.674-1.783,10.968,10.968,0,0,0,6.147-7.977c.083-.619.138-7.069.138-16.744v-15.719h2.2v17.161c0,10.956-.055,17.428-.138,17.865-.853,4.239-4.112,7.71-8.994,9.568-7.014,2.648-15.567,1.078-20.174-3.727a12.078,12.078,0,0,1-2.9-4.773l-.316-.908-.027-17.6-.041-17.588h2.338Z" transform="translate(0 0)" fill="none" stroke="#efe300" stroke-width="1"/>
  </g>
</svg>
