<svg xmlns="http://www.w3.org/2000/svg" width="16.356" height="7.884" viewBox="0 0 16.356 7.884">
  <g id="Group_130" data-name="Group 130" transform="translate(-539.1 -2046.1)">
    <line id="Line_14" data-name="Line 14" x1="6.778" y2="5.083" transform="translate(547.278 2047.5)" fill="none" stroke="#fff" stroke-linecap="round" stroke-width="2"/>
    <line id="Line_15" data-name="Line 15" x2="6.778" y2="5.083" transform="translate(540.5 2047.5)" fill="none" stroke="#fff" stroke-linecap="round" stroke-width="2"/>
  </g>
</svg>
