<svg xmlns="http://www.w3.org/2000/svg" width="677.763" height="664.039" viewBox="0 0 677.763 664.039">
  <g id="designedVO" transform="translate(0.401 0.524)">
    <path id="Path_110" data-name="Path 110" d="M353.579,265.951l4.232-5.972a22.938,22.938,0,0,1,4.32-8.3c4.047-4.869,8.238-5.425,9.471-10.038.466-1.74.145-2.692,1.093-4.964,1.063-2.548,2.128-2.937,3.139-4.966,1.088-2.184.193-2.411.9-8.065.551-4.4,1.33-6.155.791-9.644a18.317,18.317,0,0,0-.527-2.356,5.977,5.977,0,0,0-.695-2.055,4.278,4.278,0,0,1-.567-1.018c-.208-.752.12-1.235.214-1.958a3.9,3.9,0,0,0-.573-2.448c-.919-1.411-1.454-1.676-1.781-1.591-1.5.392.622,8.294-2.54,10.264-1.467.915-2.847-.211-4.463.9-1.583,1.088-1.932,3.316-2,4.934a40.7,40.7,0,0,0-3.377,11.6c-.887,6.667.366,10.361.363,15.02C361.58,250.212,360.179,257.253,353.579,265.951Z" transform="translate(12.308 -32.944)" fill="none" stroke="#fff" stroke-miterlimit="10" stroke-width="1"/>
    <path id="Path_111" data-name="Path 111" d="M355.454,214.659a29.615,29.615,0,0,1,3.151,2.516c.6.555,1.318.98,1.894,1.56a2.687,2.687,0,0,0,1.6.959,1.84,1.84,0,0,0,.434-.008,4.854,4.854,0,0,0,1.244-1.186,5.114,5.114,0,0,0,.7-1.395c.3-.835.68-1.864,1.214-3.25a15.888,15.888,0,0,0-.3-11.246,5.273,5.273,0,0,0-2.06-.1C359.576,203.089,356.585,208.012,355.454,214.659Z" transform="translate(21.717 -32.935)" fill="none" stroke="#fff" stroke-miterlimit="10" stroke-width="1"/>
    <path id="Path_112" data-name="Path 112" d="M363.791,214.2c2.893.9,4.139.4,4.747-.142,2.416-2.139-1.285-8.39,1.331-10.963a4.841,4.841,0,0,1,3.861-.947,9.844,9.844,0,0,0-5.415-4.591c-1.129-.426-5.241-1.825-8.782.135a4.852,4.852,0,0,0-2.663,2.819,4.636,4.636,0,0,0,.775,3.693c-.156,1.377-.271,2.431-.336,3.012-.25,2.275-.3,2.786.031,3.317.483.779,1.271.783,2.718,1.368A13.526,13.526,0,0,1,363.791,214.2Z" transform="translate(13.381 -32.473)" fill="none" stroke="#fff" stroke-miterlimit="10" stroke-width="1"/>
    <path id="Path_113" data-name="Path 113" d="M369.57,219.223c-.823.176-1.394-.433-3.567-2.214-3.117-2.554-4.676-3.83-6.613-4.833-2.427-1.258-2.9-.849-3.445-1.723-1.262-2.01,1.183-4.241,0-7.83a4.082,4.082,0,0,1-.47-2.193c.291-1.6,2.073-2.516,2.663-2.819,3.633-1.866,10.262-1.04,13.468,3.288a11.777,11.777,0,0,1,1.995,6.706c.179,3.051-.628,5.207-1.682,8.016C370.714,218.838,369.934,219.146,369.57,219.223Z" transform="translate(14.682 -32.473)" fill="none" stroke="#fff" stroke-miterlimit="10" stroke-width="1"/>
    <path id="Path_114" data-name="Path 114" d="M356.153,308.758c.5-1.224,5.515,1.009,11.425-1.916a19.01,19.01,0,0,0,3.923-2.7,44.255,44.255,0,0,0,8.613-8.614c1.64-2.271.933-1.866,3.916-6.578,2.428-3.836,3.642-5.753,5.246-7.361,2.879-2.884,3.916-2.4,6.656-5.4a23.379,23.379,0,0,0,3.759-5.56c1.923-4.013.879-4.945,2.663-8.77,1.733-3.718,3.164-3.38,4.228-6.734.456-1.435.161-1.357.885-6.3a47.16,47.16,0,0,1,1.156-6.3,34.59,34.59,0,0,1,2.349-5.953c.7-1.372.824-1.358,1.327-2.437a23.841,23.841,0,0,0,1.8-5.872c.688-3.621.731-6.521.783-11.746.031-3.151-.063-2.57,0-3.6.158-2.568.455-7.4,3.6-11.746a16.06,16.06,0,0,1,7.283-5.795c1.521-.583,6.853-2.673,11.981.313,2.951,1.719,6.568,5.543,6.029,9.4-.637,4.562-6.5,4.887-10.728,12.921a23.586,23.586,0,0,0-1.879,4.7,24.311,24.311,0,0,0-.392,10.728c1.166,7.275-2.665,17.322-5.795,25.527-4.145,10.872-12.216,19.924-28.19,37.586-16.669,18.432-21.731,21.294-27.25,20.908C361.881,316.913,355.531,310.272,356.153,308.758Z" transform="translate(-56.142 -32.269)" fill="none" stroke="#fff" stroke-miterlimit="10" stroke-width="1"/>
    <path id="Path_115" data-name="Path 115" d="M442.2,454.845c2.24-.575-1.523-12.944,4.229-17.384,2.775-2.142,4.622-.146,10.336-2.114,3.643-1.255,5.921-3.161,11.98-8.927,5.417-5.154,8.126-7.731,12.451-12.215,9.88-10.246,11.618-10.332,17.383-16.679,2.594-2.855,2.758-3.365,10.806-13.782,3.868-5.007,5.8-7.511,6.578-8.418,5.691-6.659,8.269-7.882,15.739-15.269,2.1-2.078,5.317-5.614,11.746-12.686,8.388-9.226,9.794-11.116,13.86-14.213,4.473-3.405,5.034-2.84,9.984-6.812a68.013,68.013,0,0,0,10.572-10.219c3.409-4.148,2.964-4.713,5.755-7.4,2.873-2.766,4.154-2.945,7.987-6.695a20.721,20.721,0,0,0,4.581-5.873c1.095-2.228,1.886-3.837,1.409-5.521-.951-3.362-5.733-2.705-7.165-6.108-.811-1.926.3-3.149,1.762-9.044,1.1-4.426.809-5.07,1.527-8.105,2.032-8.6,7.14-15.137,13.938-23.844a25.965,25.965,0,0,0,2.78-3.445c2-3.248,2.054-5.766,2.78-10.415,1.654-10.593,3.751-12.773,2.144-17.56-.617-1.839-1.606-3.54-1.38-3.67.272-.157,2.351,1.932,3.23,4.816.409,1.342.246,1.83.264,7.605.006,2.152.01,3.229.059,4.2.187,3.72.654,4.831.773,6.842.176,2.956-.567,5.061-1.958,9-1.9,5.4-2.937,5.094-4.306,9.631a68.653,68.653,0,0,0-1.723,8.77,5.8,5.8,0,0,1,0-.7c-.047,0-.415,4.225-.783,7.282-.579,4.817-1.036,5.728-1.722,10.1-1.539,9.807-.044,10.353-1.8,14.956a28.163,28.163,0,0,1-5.6,8.731c-1.821,2.088-1.946,1.73-9.631,8.692-4.088,3.7-4.994,4.658-5.99,6.225-1.515,2.384-1.468,3.4-3.172,5.051-2.029,1.963-3.13,1.517-5.286,3.641-1.852,1.825-1.266,2.377-3.171,4.346-.621.642-1.353,1.275-5.637,3.876-2.8,1.7-3.469,2.025-4.4,2.608-3.652,2.28-5.583,4.9-7.492,7.172-7.844,9.32-12.164,8.937-15.709,16.3a13.468,13.468,0,0,0-1.527,8.1,12.7,12.7,0,0,0,1.762,4.581c1.63,2.83,4.006,4.666,8.692,8.222,2.145,1.628,3.661,2.612,6.695,4.581,3.867,2.509,4.46,2.667,5.051,2.7,2.887.165,5.215-2.666,8.692-7.283,5.984-7.945,7.24-10.378,9.631-13.39,2.637-3.323,6.456-6.131,14.095-11.746,7.878-5.791,11.68-7.816,19.263-14.095,6.007-4.974,8.307-7.582,8.927-11.277.782-4.657-1.445-9.016-1.879-9.866-2.62-5.129-6.169-5.795-7.282-10.806a9.043,9.043,0,0,1,.156-5.481c1.2-3,3.562-2.924,6.734-6.343a20.178,20.178,0,0,0,4.463-7.987,23.518,23.518,0,0,0,.783-8.769,35.923,35.923,0,0,0-1.488-7.987c-1.358-4.94-2.563-6.555-3.367-11.433a14,14,0,0,1-.079-4.7c.236-1.457.6-3.687,2.428-5.168a6.328,6.328,0,0,1,2.9-1.253,9.513,9.513,0,0,1,6.5,1.253c3.889,2.288,5.03,6.608,5.56,8.613a35.851,35.851,0,0,1,.7,5.952c.062.776.088,1.265.235,3.915.3,5.442.3,5.448.314,5.638a72.413,72.413,0,0,1-1.645,17.618c-1.134,5.174-1.348,3.209-3.837,12.138-2.379,8.539-3.569,12.809-3.524,16.6a14.853,14.853,0,0,1-.547,5.012,16.025,16.025,0,0,1-4.581,6.852c-3.99,3.971-7.879,8.043-11.824,12.059-5.128,5.22-3.943,4.892-7.635,8.457-6.329,6.111-9.175,6.46-15.034,11.511-4.137,3.565-6.6,6.84-11.511,13.39-8.025,10.691-8.229,13.469-14.095,18.088a59.591,59.591,0,0,0-7.282,5.991c-2.589,2.609-3.389,4.041-6.891,7.987-2.717,3.061-3.806,3.969-5.873,6.159-6.42,6.8-6.072,8.814-11.824,15.453a63.025,63.025,0,0,1-11.969,11.006,73.677,73.677,0,0,1-12.619,6.847c-5.821,2.645-7.306,2.66-13.625,5.482a119.313,119.313,0,0,0-11.277,5.638,80.8,80.8,0,0,0-20.359,15.661A61.6,61.6,0,0,0,454.1,485.7a62.351,62.351,0,0,0-6.953,16.763c-3.484,12.379-9.035,24.08-13.523,36.132-4.772,12.814-7.2,19.206-10.689,27.837-6.739,16.655-8.249,18.02-16.209,36.647C401.2,616,397.172,625.427,392.629,638.9c-7.359,21.821-11.038,32.731-10.728,40.994.17,4.552.9,10.477-1.722,11.745-3.156,1.53-6.74-5.855-15.035-9.4-14.329-6.117-27,5.951-33.358,0-.832-.778-3.369-3.563-.939-18.323,3.119-18.957,9.866-31.479,9.866-31.479,13.354-24.787,25.637-47.585,32.418-73.294,3.98-15.087,13.474-51.078,14.095-59.668a9.578,9.578,0,0,1,.939-3.641c2.041-4.153,6.273-4.542,10.689-7.165,4.527-2.688,10.217-8.3,10.454-14.33.162-4.113-2.369-4.4-4.111-11.393-.979-3.929-2.277-9.146.04-14.369,3.2-7.212,11.085-9.456,12.529-9.866,2.077-.592,6.041-1.719,10.18-.314C437.429,441.623,439.865,455.443,442.2,454.845Z" transform="translate(-226.049 -33.414)" fill="none" stroke="#fff" stroke-miterlimit="10" stroke-width="1"/>
    <path id="Path_116" data-name="Path 116" d="M414.74,266.3l4.131-7.778a13.679,13.679,0,0,1,3.267-3.909,14.3,14.3,0,0,1,8.409-3.116,6.912,6.912,0,0,0-4,1.394c-3,2.391-2.636,7.007-2.49,8.89.208,2.676.921,3.7,2.206,7.63a73.841,73.841,0,0,1,2.4,9.419,25.271,25.271,0,0,1,.365,8.339,20.576,20.576,0,0,1-3.011,8.966,19.605,19.605,0,0,1-1.768,2.3c-1.358,1.486-2.08,1.744-4.2,3.583-1.667,1.45-2.5,2.175-2.907,3a7.891,7.891,0,0,0-.419,4.831,10.818,10.818,0,0,0,1.5,4.1c1.134,1.8,2.074,2.016,3.56,3.676a14.74,14.74,0,0,1,2.832,4.811c2.308,5.883,1.375,9.8.7,11.658-.876,2.394-2.427,4.363-10.813,10.751-4.129,3.145-7.795,5.747-10.755,7.776-4.572,3.041-8.237,5.839-10.914,7.995-4.809,3.874-7.214,5.811-9.8,8.906a92.55,92.55,0,0,0-6.6,9.349,35.96,35.96,0,0,1-5.825,7.5c-.886.854-1.667,1.508-2.2,1.939a4.8,4.8,0,0,1-1.824.786c-2.787.542-5.031-1.748-5.279-2.01-3.466-2.208-6.349-4.195-8.584-5.792a28.737,28.737,0,0,1-5.385-4.6,24.656,24.656,0,0,1-2.815-3.9,11.2,11.2,0,0,1-1.056-2.711,11.388,11.388,0,0,1-.113-4.867,20.793,20.793,0,0,1,5.028-9.414c1.814-1.885,3.176-2.473,6.08-4.945a49.825,49.825,0,0,0,6.344-6.48,27.418,27.418,0,0,1,6.335-6.25c1.92-1.349,2.171-1.138,5.262-3.173,3.78-2.489,5.67-3.734,6.914-5.506,1.042-1.484,1.4-2.664,3.011-3.773.909-.627,1.468-.715,2.642-1.585a13.448,13.448,0,0,0,2.511-2.475,57.686,57.686,0,0,0,3.864-5.716c1.321-1.917,2.23-2.377,5.574-5.221,4.016-3.416,6.505-5.532,8.922-8.426,2.448-2.93,5.159-6.175,5.88-10.885.281-1.836-.081-1.669.27-5.869.271-3.242.7-5.895,1.112-8.417.365-2.23.728-4.147,1.032-5.658Q414.434,268.863,414.74,266.3Z" transform="translate(-30.922 -36.855)" fill="none" stroke="#fff" stroke-miterlimit="10" stroke-width="1"/>
    <path id="Path_117" data-name="Path 117" d="M470.246,314.31c.2-.451.512-1.162.91-2.026,3.91-8.476,6.466-11.211,11.674-20.169,5.245-9.025,2.864-6.615,7.178-13.894,2.125-3.586,3.271-5.129,2.867-7.213-.846-4.371-7.63-6.623-11.432-7.2-7.182-1.1-12.952,2.356-15.034,3.759q-4.7,14.017-9.4,28.033-12.882,22.924-25.762,45.848c-2.763,7.658-6.8,20.53-2.937,23.022,2.61,1.683,7.8-2.03,11.864-4.934,14.857-10.622,18.685-23.219,27.955-26.193,5.567-1.786,9.083-2.819,9.083-2.819,4.045-1.188,4.708-1.294,5.951-1.88,2.229-1.051,5.226-3.132,7.961-7.715a13.183,13.183,0,0,1-5.658,2.366,14.566,14.566,0,0,1-13.914-6.376A12.858,12.858,0,0,1,470.246,314.31Z" transform="translate(-170.234 -37.821)" fill="none" stroke="#fff" stroke-miterlimit="10" stroke-width="1"/>
    <path id="Path_118" data-name="Path 118" d="M455.177,276.854c-13.874,3.98-24.862,2.147-26.936-2.819-2.013-4.818,4.046-13.334,11.588-16.287,7.72-3.022,18.438-.783,20.829,5.325,1.319,3.368.229,8.225-2.662,10.023-3.253,2.023-6.85-1.03-11.9-1.41-4.562-.343-11.195,1.427-19.889,11.276" transform="translate(-138.018 -37.247)" fill="none" stroke="#fff" stroke-miterlimit="10" stroke-width="1"/>
    <path id="Path_119" data-name="Path 119" d="M505.247,218.774c.786,5.367,1.116,9.742,1.273,12.7.285,5.354.114,8.163.371,15.61.143,4.136.34,7.492.48,9.612a19.87,19.87,0,0,0-12.816-5.033c-9.216-.083-14.8,6.622-15.516,7.507a38.237,38.237,0,0,0-2.655,4.313,38.925,38.925,0,0,0-4.082,12.7,57.064,57.064,0,0,1-5.933,14.591c-9.243,15.872-24.784,25.2-24.784,25.2-5.106,3.066-9.4,4.7-11.98,9.8a19.176,19.176,0,0,0-1.644,11.041l11.393-22.669a69.518,69.518,0,0,1,9.039-10.723c3.366-3.262,4.286-3.5,6.818-6.309A42.548,42.548,0,0,0,463.2,284.2c.883-2.333.224-1.3,3.406-12.921a20.974,20.974,0,0,1,3.876-8.456,17.832,17.832,0,0,1,3.875-3.524c.017-1.726.049-3.919.118-6.46.064-2.331.143-4.418.2-5.632.388-8.638,1.181-10.208,1.094-14.924a42.05,42.05,0,0,0-1.292-9.514,72.73,72.73,0,0,1-2.688-15.5,16.489,16.489,0,0,1,1.262-7.173c.467-1.092,1.365-3.189,2.482-3.167,1.193.023,1.473,2.389,2.937,4.7,2.328,3.672,5.022,3.023,12.92,7.635,5.045,2.945,6.538,4.725,7.87,3.993,2.435-1.336.363-8.883,1.175-9.044.771-.153,2.765,6.647,3.054,7.634C504.332,214.736,504.9,217.15,505.247,218.774Z" transform="translate(-185.62 -32.494)" fill="none" stroke="#fff" stroke-miterlimit="10" stroke-width="1"/>
    <path id="Path_120" data-name="Path 120" d="M435.349,199.654c-.042-2.429,2.439-4.329,3.993-5.521.874-.669,4.609-3.529,9.162-2.584,3.9.811,6,3.918,7.869,6.7a16.881,16.881,0,0,1,3.092,8.191c.26,3.21-.535,6.371-1.1,6.373-.408,0-.243-1.671-1.292-2.936-1.7-2.051-5-1.105-8.34-1.292C442.309,208.221,435.419,203.652,435.349,199.654Z" transform="translate(-144.735 -32.049)" fill="none" stroke="#fff" stroke-miterlimit="10" stroke-width="1"/>
    <path id="Path_121" data-name="Path 121" d="M502.8,230.535c.648-1.414,4.5-1.2,12.216-.783a11.624,11.624,0,0,1,7.048,2.349c1.808,1.493,2.062,2.961,4.228,10.023,2.282,7.438,2.379,7.057,3.759,12.059,1.343,4.87,2.019,7.353,2.193,9.71a34.751,34.751,0,0,1-.783,9.866c-1.161,5.27-2.329,5.024-3.915,10.65-1.825,6.478-.782,8.6-3.132,12.059-1.811,2.668-3.085,2.1-5.482,4.7-4.311,4.671-6.212,12.522-3.915,14.408,2.43,1.995,9.349-2.857,14.878-6.734,1.558-1.092,7.444-5.221,6.734-6.734-.432-.92-2.895-.011-9.083-.627-2.207-.219-3.9-.535-4.385-.627-5.043-.961-5.437-1.907-6.734-1.722-3.842.548-5.32,9.561-8.77,24.745-2.279,10.029-4.075,12.583-3.132,13.154,2.5,1.514,16.85-14.249,14.251-18.01-.7-1.01-2.562-1.072-3.837-.783-6.382,1.445-5.013,13.263-13.312,23.413-5.113,6.253-13.2,11.021-15.74,9.161-.974-.713-1.733-2.838,6.343-25.841,3.611-10.284,5.417-15.425,7.987-22.082,5.7-14.764,9.274-22.229,6.343-28.894a16.363,16.363,0,0,1-1.88-6.108c-.075-.987-.244-4.687,3.054-10.806,3.559-6.6,5.851-6.182,6.343-9.162C515.322,240.365,501.19,234.049,502.8,230.535Z" transform="translate(-267.859 -35.092)" fill="none" stroke="#fff" stroke-miterlimit="10" stroke-width="1"/>
    <path id="Path_122" data-name="Path 122" d="M489.636,270.182c.813-1.44,4.27-7.179,10.924-8.692,8.035-1.825,17.375,3.274,18.5,9.1a7.055,7.055,0,0,1-.235,3.465c-1.468,4.627-7.449,7.172-12.1,7.106-7.34-.1-14.738-6.76-13.8-11.335.968-4.729,10.973-7.858,17.619-4.7,3.184,1.514,6.531,4.915,5.814,7.224-.882,2.84-7.05,1.242-11.159,4.7-2.8,2.352-4.946,7.3-3.113,18.382" transform="translate(-254.345 -37.623)" fill="none" stroke="#fff" stroke-miterlimit="10" stroke-width="1"/>
    <path id="Path_123" data-name="Path 123" d="M523.3,231.495c-1.641.02-3.9.021-6.583-.067-7.517-.246-9.083-.879-9.548-1.969a2.713,2.713,0,0,1,.157-2.036c1.008-2.676,4.763-3.717,7.361-3.6.332.015,5.021.263,6.578,3.289,1.065,2.071-.1,3.953,1.448,6.108a5.807,5.807,0,0,0,2.114,1.762" transform="translate(-275.984 -34.642)" fill="none" stroke="#fff" stroke-miterlimit="10" stroke-width="1"/>
    <path id="Path_124" data-name="Path 124" d="M604.867,225.4c-.673.1-5.731.929-7.576,4.933a9.356,9.356,0,0,0-.528,5.227c.389,3.155,1.742,4.359,2.76,7.107.552,1.489.629,3.93.763,8.75.324,11.684-.684,12.428.529,15.622a8.53,8.53,0,0,1,.7,4.111,8.882,8.882,0,0,1-2,4.522c-4.77,6.384-8.564,16.465-8.105,19.5a2.2,2.2,0,0,1-.256,1.656c-.533.716-1.557.663-2.328.81-1.671.317-2.64,1.658-3.994,3.406-6.5,8.393-9.284,9.971-13.625,18.089a49.583,49.583,0,0,1-2.585,4.816c-2.76,4.162-5.577,6.085-8.222,8.457-2.919,2.618-4.883,5.347-8.809,10.805a119.549,119.549,0,0,0-9.749,16.445c-3.149,6.1-5.083,10.658-7.87,17.266-4.43,10.5-7.386,18.67-8.105,20.673-4.722,13.134-18.08,50.287-14.329,52.034,2.979,1.388,16.826-19.547,26.78-39,19.841-38.765,14.782-53.191,31.949-64.837,10.3-6.985,19.841-7.036,28.19-18.794,6.022-8.481,9.181-19.9,7.047-21.142-4.495-2.622-39.342,35.907-31.009,50.272,2.424,4.179,8.7,6.656,11.746,4.7,5.543-3.565-12.282-22.372-6.578-40.406,5.016-15.858,22.65-14.6,25.371-30.069,2.057-11.7-6.7-19.964-1.41-28.659,2.646-4.352,7.327-6.374,10.806-7.4" transform="translate(-369.164 -34.769)" fill="none" stroke="#fff" stroke-miterlimit="10" stroke-width="1"/>
    <path id="Path_125" data-name="Path 125" d="M633.762,479.608c18.854-3.569,24.609-2.747,25.371-.7,1.153,3.091-9.158,8.884-7.517,13.626,1.108,3.2,6.48,2.484,7.752,5.873,1.637,4.36-5.348,10.64-6.578,11.746-6.568,5.905-19.718,12.748-25.37,7.752-5.495-4.856-2.679-19.819,6.107-26.78,6.726-5.329,14.928-4.368,15.975-4.229,1.743.232,9.586,1.272,10.571,5.168,1.491,5.9-12.791,18.158-20.672,14.565-3.487-1.59-6.177-6.489-4.933-10.1,1.179-3.422,5.486-4.523,8.927-5.4,4.477-1.145,12.275-1.79,13.449,1.057,1.145,2.774-4.394,7.9-8.457,10.571-7.35,4.841-11.148,2.524-15.329,6.7-6.041,6.028-3.913,16.662-3.759,17.383,1.675,7.82,7.009,10.811,9.867,15.035,9.831,14.533-9.343,44.114-13.391,50.506-37.385,59.041-38.69,120.762-46.278,119.1-6.282-1.374-12.317-45.195,8.692-78.931,19.98-32.083,51.631-34.512,55.675-58.964,2.875-17.383-10.114-34.343-22.787-46.749" transform="translate(-472.586 -54.887)" fill="none" stroke="#fff" stroke-miterlimit="10" stroke-width="1"/>
    <path id="Path_126" data-name="Path 126" d="M586.958,699.723c-7.223-14.607,13.221-28.076,52.934-87.7,52.988-79.556,79.482-119.334,84.57-139.7.9-3.583,3.514-15.224,11.9-18.48,8.2-3.185,20.692.255,23.492,7.2,5,12.415-26.118,23.145-34.454,49.175-13.349,41.681,47.359,73.742,35.081,106.5-12.624,33.675-86.5,25.692-101.171,70.161-2.465,7.476-2.655,14.605-9.4,20.673C633.695,722.152,595.241,716.474,586.958,699.723Z" transform="translate(-585.524 -52.929)" fill="none" stroke="#fff" stroke-miterlimit="10" stroke-width="1"/>
    <path id="Path_127" data-name="Path 127" d="M483.83,229.7A6.291,6.291,0,0,0,485,225.86a7.114,7.114,0,0,0-2.154-4.151,72.873,72.873,0,0,0-6.382-6.46c-4.6-4.166-5.524-5.117-6.616-6.578a14.793,14.793,0,0,1-2.78-4.972,13.223,13.223,0,0,1,.04-7.361,14.635,14.635,0,0,1,4.463-6.891,20.467,20.467,0,0,1,4.463-2.976,44.767,44.767,0,0,1,7.517-3.288c4.86-1.607,9.5-3.823,14.251-5.716,7.517-2.994,12.727-6.749,20.2-12.137,14.708-10.6,22.061-15.9,25.37-24.04,2.025-4.98,1.036-6.213,5.482-20.829a55.837,55.837,0,0,1,5.325-12.843c1.2-2.057,2.043-3.157,6.421-8.77,6.985-8.955,10.5-13.463,11.746-14.878a157.517,157.517,0,0,1,11.589-11.746c10.949-9.779,22.065-14.327,43.85-23.021,4.734-1.89,25.385-10.036,27.094-6.891.615,1.132-1.709,2.827-1.1,5.012.843,3,6.3,3.595,12.216,4.7,12.046,2.245,21.409,3.99,26.193,10.336a15.6,15.6,0,0,1,3.172,9.279c-.14,8.522-8.593,11.658-15.27,20.907-8.629,11.955-8.385,25.938-8.34,28.542.3,17.128,10.8,22.829,7.166,35.942-1.545,5.569-3.338,4.177-7.87,12.686-9.715,18.241-8.046,36.975-7.243,44.868.848,8.339,2.139,9.535,2.819,15.035,2.238,18.111-8.2,33.972-24.745,55.44-45.158,58.611-59.527,60.053-67.342,87.389-1.008,3.528-6.258,22.7-10.336,22.238-2.235-.252-2.092-6.168-7.6-11.868-2.685-2.782-5.422-4.174-10.258-6.3-11.757-5.166-21.36-8.273-21.926-8.457-27.913-9.032-21.259-7.835-32.262-10.963a98.682,98.682,0,0,1-16.209-6.264c-6.221-3.048-8.236-4.856-9.514-6.225a24.485,24.485,0,0,1-6.108-13.155,26.923,26.923,0,0,1,4.111-18.206c1.291-1.956,2.717-3.451,7.478-10.18.965-1.365,1.75-2.5,2.271-3.25a16.886,16.886,0,0,0-.078-3.015,9.458,9.458,0,0,0-1.175-4.307,6.125,6.125,0,0,0-5.325-2.623c-1.523.147-2.163.985-2.917.568-.585-.324-.744-1.135-.823-3.543-.113-3.5-.17-5.252.236-6.753a14.932,14.932,0,0,1,2.407-4.894c.492-.663,4.11-5.4,10.023-6.2,2.661-.361,4.52.247,4.7-.323.206-.657-2.207-1.636-5.521-4.112-2.617-1.955-4.62-3.452-5.637-5.4-1.944-3.727.109-8.348,1.41-11.276C474.336,241.551,479.719,236.06,483.83,229.7Z" transform="translate(-403.347 -20.081)" fill="none" stroke="#fff" stroke-miterlimit="10" stroke-width="1"/>
    <path id="Path_128" data-name="Path 128" d="M650.885,155.314c2.565-4.277,6.248-10.783,6.891-19.419.107-1.429.331-4.716-.626-5.012s-2.607,2.619-7.518,11.589c-5.009,9.149-6.206,11.415-7.673,14.291a66.5,66.5,0,0,0-5.873,15.5c-.724,3.067-.58,3.514-.352,3.641C637.407,176.843,646.742,162.225,650.885,155.314Z" transform="translate(-527.296 -27.214)" fill="none" stroke="#fff" stroke-miterlimit="10" stroke-width="1"/>
    <path id="Path_129" data-name="Path 129" d="M640.614,131.508a68.027,68.027,0,0,1-.313,7.674c-.407,4.151-.813,8.008-2.663,12.372-1.242,2.932-2.362,4.268-2.193,4.385.336.232,5.014-4.794,7.674-11.511a30.422,30.422,0,0,0,1.673-7.078,12.507,12.507,0,0,0-.185-3.963c-.17-.807-.531-2.525-1.069-2.551-.7-.036-1.285,2.825-1.985,5.449-1.638,6.142-2.757,6.634-4.621,12.451a64.3,64.3,0,0,0-2.584,11.981" transform="translate(-513.188 -27.212)" fill="none" stroke="#fff" stroke-miterlimit="10" stroke-width="1"/>
    <path id="Path_130" data-name="Path 130" d="M636.1,131.122a27.839,27.839,0,0,1,4.111-6.343c2.252-2.612,4.379-5.077,6.331-4.6,2.755.678,3.268,6.753,3.3,7.179a13.982,13.982,0,0,1-.47,4.817c-8.4,29.112-11.041,35.589-11.041,35.589-8.621,21.164-11.669,26.3-13.038,28.543-4.125,6.746-9.516,14.148-9.984,13.859-.349-.214,1.987-4.726,3.054-6.695,1.687-3.112,3.147-5.306,3.289-5.521,3.715-5.6,6.369-15.346,8.574-21.964a141.118,141.118,0,0,1,12.215-27.955c2.931-5,6.546-10.287,5.638-17.149-.142-1.069-.217-6.243-2.467-6.93-1.434-.438-3.255,1.086-4.346,2a14.729,14.729,0,0,0-2.937,3.759,8.446,8.446,0,0,1,1.38-2.878c1.172-1.785,2.024-3.084,3.612-3.583,1.936-.607,4.521.112,5.432,1.7.375.656.256,1.091.088,4.845-.1,2.152-.085,2.643-.118,3.172-.348,5.618-3.964,11.893-3.964,11.893-4.86,8.431-6.936,18.191-10.777,27.132-3.587,8.349-8.744,20.5-15.388,36.647" transform="translate(-500.648 -26.356)" fill="none" stroke="#fff" stroke-miterlimit="10" stroke-width="1"/>
    <path id="Path_131" data-name="Path 131" d="M646.483,132.272c-1.184,2.333-9.345,18.441-15.817,32.262a79.179,79.179,0,0,0-4.7,12.216c-.686,2.372-.635,2.63-2.193,9.866-2.427,11.277-3.137,13.371-3.6,18.324-.444,4.734-1.514,6.882-.313,7.831,1.386,1.094,4.523.042,6.42-1.566a8.026,8.026,0,0,0,2.114-2.819c4.057-9.12,9.716-17.539,13.077-26.937,7.491-20.945,11.418-29.025,13.782-43.3.238-1.438,1.746-10.8-.156-11.432-.212-.071-.7-.114-3.759,2.741-2.09,1.952-3.869,3.851-4.307,4.385-4.65,5.669-25.224,61.126-21.065,62.33,1.843.534,6.4-10.2,11.276-21.69,7.943-18.714,12.338-36.895,11.433-37.2-1.294-.43-14.025,35.49-15.739,40.327-3.752,10.585-10.074,28.423-8.928,28.894,1.065.437,7.959-14.3,7.909-14.329s-7.762,17.272-9.944,16.522c-1.988-.683,1.115-16.168,4.15-26.075.763-2.491,1.777-5.463,2.584-7.831,2.354-6.9,4.611-13.521,5.09-13.39.324.088-.221,3.257-3.6,19.889-2.669,13.127-3.486,16.841-2.819,17.07,1.083.373,5.166-8.753,6.891-12.607,3.561-7.958,5.7-14.153,6.813-17.384,8.833-25.56,11.425-32.091,9.944-32.888-.806-.434-2.363,1.081-4.229,2.9-6.747,6.568-8.835,16.152-7.517,16.836.85.441,2.88-2.951,3.68-2.506,1.1.609-1.7,7.554-4.542,14.8-6.878,17.57-7.917,21.514-8.378,21.377-.879-.26,1.678-14.924,7.439-30.226,2.866-7.615,5.889-13.7,5.559-13.86-.362-.18-4.318,7.013-7.908,13.7" transform="translate(-510.521 -26.881)" fill="none" stroke="#fff" stroke-miterlimit="10" stroke-width="2"/>
    <path id="Path_132" data-name="Path 132" d="M636.745,170.6a83.582,83.582,0,0,1,7.83-18.637c3.454-5.924,6.6-9.248,8.065-14.8.19-.714.8-3.16,1.488-3.132.619.025,1.156,2.027,1.253,3.368.473,6.45-8.408,8.111-9.71,15.974-.612,3.7.822,6.522-1.331,8.614-1.184,1.15-2.4,1.053-3.759,2.663a7.25,7.25,0,0,0-1.722,4.933,28.217,28.217,0,0,1,3.524-9.553c2.156-3.513,3.2-3.216,5.089-6.264,3.521-5.681,3.475-12.486,2.741-12.685-.332-.091-1.147,1.708-2.78,5.305a56.914,56.914,0,0,0-3.543,9.769c-.446,1.744-1.181,4.618-.568,4.894.758.34,2.854-3.607,3.524-3.289.6.285-.474,3.753-1.361,5.981-.679,1.706-1.685,4.233-2.408,4.111-.3-.05-.892-.61-.881-5.491" transform="translate(-525.919 -27.467)" fill="none" stroke="#fff" stroke-miterlimit="10" stroke-width="1"/>
    <path id="Path_133" data-name="Path 133" d="M561.62,133.068c-2.929,3.221-6.756,4.4-8.928,3.132-2.844-1.667-2.245-7.2-.626-10.493,2.282-4.644,7.265-6.228,10.336-7.2,3.586-1.141,13.872-3.6,23.8,2.505,4.5,2.766,7.069,7.514,12.372,16.758a62.246,62.246,0,0,1,4.071,9.24c.785,2.208,1.875,5.279,1.293,5.6s-2.579-2.387-4.934-5.4c-6.421-8.228-10.38-13.3-15.5-16.678-4.479-2.953-7.4-4.948-11.041-4.346-4.711.779-6.531,5.2-14.33,7.282-2.452.656-3.864.645-4.58-.118-1.344-1.431.345-4.895.822-5.873.776-1.59,2.828-5.8,6.813-6.108,2.09-.162,4.884.736,5.167,2.232.538,2.831-8.018,7.271-8.457,6.695s5.406-8.105,13.273-9.279A16.634,16.634,0,0,1,584.327,125c2.438,2.18,4.47,5.475,3.876,6.108-.7.75-5.78-1.5-8.574-5.755-1.967-3-2.269-6.178-3.172-6.108-.871.068-.57,3.031-2.818,4.816-.912.724-2.592,1.532-3.759.94-1.821-.924-.67-4.385-2.114-5.286-2.53-1.579-10.82,6.09-9.984,7.4,1.043,1.632,13.965-10.184,24.549-5.755,6.064,2.538,10.057,9.862,11.981,13.39,2.531,4.645,2.412,6.668,5.52,11.159,3.816,5.514,8.6,9.121,8.927,8.809.507-.49-11.771-14.179-15.857-18.675-1.3-1.434-1.951-2.156-2.585-2.819a78.545,78.545,0,0,0-18.441-14.33" transform="translate(-400.13 -26.109)" fill="none" stroke="#fff" stroke-miterlimit="10" stroke-width="1"/>
    <path id="Path_134" data-name="Path 134" d="M599.507,180.651a17.06,17.06,0,0,1-4.758,3.406c-4.64,2.214-8.912,1.531-8.986,2.173-.063.547,2.962,1.625,7.694,2.408a55.156,55.156,0,0,0,26.429-2c1.543-.466,4.01-1.222,3.934-1.7-.12-.769-6.66-.407-10.512-.059-14.15,1.276-22.366,5.075-22.67,4.287-.242-.628,4.678-3.866,10.572-4.228.683-.042,3.995-.246,4.111.352.21,1.088-10.3,4.15-17.325,3.054-.3-.047-2.183-.34-2.173-.646s1.911-.377,5.109-.881c.582-.091,2.5-.4,4.452-.851a53.31,53.31,0,0,0,7-2.2c4.109-1.548,4.29-2.034,5.579-1.938,3.187.238,6.183,3.52,5.638,4.933-.5,1.3-3.674.167-10.277,1.116-5.473.787-8.72,2.344-8.986,1.762-.237-.517,1.937-2.6,4.817-3.7,6.375-2.437,10.314,2.19,17.971.235,2.554-.652,5.693-2.08,5.578-3.23-.136-1.367-4.837-1.925-5.931-2.055-5.1-.605-9.48.294-16.092,1.7a32.556,32.556,0,0,1-8.75,1,28.966,28.966,0,0,1-3.707-.374" transform="translate(-447.434 -31.193)" fill="none" stroke="#fff" stroke-miterlimit="10" stroke-width="1"/>
    <path id="Path_135" data-name="Path 135" d="M597.136,171.106c-.3.314-3.278,3.574-2.349,7.282,1.271,5.074,8.824,6.879,10.023,5.482,1.1-1.286-2.184-6.822-3.838-6.5-.858.167-1.48,1.956-1.1,3.288.88,3.053,6.943,3.4,7.038,3.1.084-.267-4.509-1.126-8.692-5.168a12.206,12.206,0,0,1-2.555-4.258c-.795-2.155-.679-3.621-.88-3.621-.52,0-1.686,9.774-.029,10.229.677.186,1.651-1.238,2.055-1.938,1.906-3.3-.1-6.638,1.262-7.664,1.238-.928,3.945.772,4.728,1.262,1.518.951,1.917,1.7,4.825,5.2,2.848,3.425,4.468,5.118,6.225,5.05.323-.012.494-.077.578-.205.533-.807-2.541-3.861-5.668-6.02-2.932-2.026-6.511-2.542-6.783-1.967-.492,1.043,9.693,6.091,9.338,6.812-.374.759-12.51-3.032-12.3-6.548.082-1.392,2.092-2.606,2.349-2.408.073.057.049.261-2.526,4.758-1.392,2.432-1.617,2.775-1.879,2.731-.929-.158-1.956-3.878-.411-6.167a3.625,3.625,0,0,1,1.526-1.321c.03.038-3.642,1.848-4.111,4.816-.235,1.489.3,3.517,1.616,3.965,1.345.457,3.288-1.04,3.7-2.76.293-1.224-.1-2.944-1.028-3.172a1.736,1.736,0,0,0-1.41.558" transform="translate(-445.591 -30.399)" fill="none" stroke="#fff" stroke-miterlimit="10" stroke-width="1"/>
    <path id="Path_136" data-name="Path 136" d="M610.081,208.439c-7.628-2.792-19.156-7.022-33.2-12.216-28.686-10.608-37.494-14-53.248-19.733-11.881-4.322-28.964-10.425-49.959-17.541l-8.927-2.193c-2.531,4.52-3.354,8.222-2.193,9.084,1.523,1.129,6.209-2.8,6.421-2.976,1.3.491,3.252,1.212,5.638,2.035,3.7,1.281,6.456,2.119,7.2,2.35,6.776,2.093,15.41,5.757,17.384,6.578,16.342,6.79,117.4,43.582,118.085,41.814.205-.533-8.725-4.424-18.011-8.457-57.058-24.781-115.253-44.745-115.891-43.068-.178.466,4.138,2.488,9.866,5.168,23.331,10.922,43.891,15.574,44.008,15.192.076-.25-8.609-2.608-23.8-8.927-7.316-3.043-10.869-4.81-10.885-4.777a256.388,256.388,0,0,0,41.658,17.462c6.16,1.983,6.81,1.924,10.728,3.446a94.069,94.069,0,0,1,28.66,17.7" transform="translate(-327.062 -29.283)" fill="none" stroke="#fff" stroke-miterlimit="10" stroke-width="1"/>
    <path id="Path_137" data-name="Path 137" d="M691.669,220.4a13.863,13.863,0,0,1,3.563,6.3c.358,1.436,1.368,5.494-.979,8.927-2.378,3.48-7.5,5.286-10.3,3.642-1.684-.989-1.526-2.638-3.21-6.539a30.673,30.673,0,0,0-5.795-9.122c-4.665-4.608-12.807-6.983-15.662-4.151a5.1,5.1,0,0,0-1.174,3.876" transform="translate(-585.933 -34.196)" fill="none" stroke="#fff" stroke-miterlimit="10" stroke-width="1"/>
    <path id="Path_138" data-name="Path 138" d="M690.141,235.355a27.439,27.439,0,0,1-10.727-6.969c-1.446-1.549-4.494-4.811-3.524-6.734.874-1.734,4.548-1.462,5.246-1.41,7.118.528,13.136,7.628,12.138,9.4-.7,1.242-4.982.05-6.813-.627-3.464-1.28-7.282-4.08-6.812-5.325s5.367-1.585,8.222,1.019c2.739,2.5,2.994,7.172,1.723,7.909-.465.269-1.122,0-7.674-4.934-4.392-3.311-4.488-3.487-4.463-3.524.267-.4,16.961,11.241,17.853,10.1.5-.632-3.951-5.1-12.137-12.451" transform="translate(-601.711 -34.353)" fill="none" stroke="#fff" stroke-miterlimit="10" stroke-width="1"/>
    <path id="Path_139" data-name="Path 139" d="M680.486,264.332A86.041,86.041,0,0,0,694.7,278.427c2.8,2.172,9.171,6.821,9.22,6.753a.93.93,0,0,0-.41-.294c-.938-.371-2.085.779-2.819,1.234-.972.6-2.706.905-6.049-.588l-11.678-2.261-5.826-4.8a11.812,11.812,0,0,1-1.525-2.813c-1.457-3.868-1.041-9.066.971-9.8a1.613,1.613,0,0,1,1.585.265c1.186,1.113-1.019,3.907-.881,6.578.294,5.635,10.982,9.857,11.657,8.927.448-.618-3.894-3-6.666-9.367-1.639-3.767-1.539-6.2-1.938-6.166-.831.063-2.852,10.757,1.7,14.154,2.788,2.078,5.647-.361,10.336,2.5a13.478,13.478,0,0,0,4.757,2.231c1.235.261,3.768.573,4.052-.147.62-1.567-9.589-7.6-10.776-6.254-.407.462.536,1.458.058,2.085-.979,1.285-6.875-.388-7.282-2.878-.293-1.794,2.513-2.489,2.526-5.05.011-2.151-1.954-4.012-3.524-4.845a4.04,4.04,0,0,0-2.995-.675c-2.509.768-3.861,6.027-2.144,7.9,2.006,2.186,6.773-1.8,10.631.646,3.22,2.04,3.92,7.365,3.435,7.605-.38.189-2.612-2.212-2.613-4.9,0-1.888,1.1-2.66.646-3.377-.9-1.433-6.8-.792-7.605,1.849-.586,1.922,1.577,4.719,4.081,5.7,4.027,1.572,7.427-2.148,10.572-.352a6.008,6.008,0,0,1,2.526,3.876" transform="translate(-609.401 -37.88)" fill="none" stroke="#fff" stroke-miterlimit="10" stroke-width="1"/>
    <path id="Path_140" data-name="Path 140" d="M708.763,287.566a10.776,10.776,0,0,1-.47,3.054c-1.017,3.307-3.275,4.758-6.518,7.635-5.542,4.915-4.639,5.726-9.044,8.868-3.24,2.31-4.822,3.578-7.048,3.583-2.167,0-3.409-1.024-6.928-1.188a19.52,19.52,0,0,0-3.935.216l-.522-5.605q.04-1.564.081-3.129,1.317-3.046,2.631-6.092a19.142,19.142,0,0,1,8.3-4.9,31.775,31.775,0,0,1,4.012-.684,52.159,52.159,0,0,1,8.574-.529c.243.008,5.843.2,5.873.823.024.528-3.957.395-7.87,2-7.423,3.039-12.157,11.322-10.864,12.862,1.046,1.246,6.3-1.606,10.806-4.052,5.467-2.968,10.48-5.689,10.043-7.694-.572-2.619-10.468-4.1-18.618-.764-6.032,2.472-12.468,8.145-11.335,11.864.763,2.5,4.786,3.579,6.754,3.817,2.267.273,3.958-.346,7.34-1.586,3.31-1.213,4.983-1.852,5.815-3.465.939-1.821.892-4.77-.529-5.755-3.513-2.437-12.928,8.853-16.091,6.637-1.785-1.25-1.477-6.726,1.351-9.044,3.716-3.048,8.78,1.822,17.56-.352,5.385-1.334,8.465-4.4,8.574-4.229.19.3-10.246,7.806-24.02,15.329-1.893,1.033-3.493,1.873-4.64,2.467" transform="translate(-613.833 -39.737)" fill="none" stroke="#fff" stroke-miterlimit="10" stroke-width="1"/>
    <path id="Path_141" data-name="Path 141" d="M461.78,231.36a55.77,55.77,0,0,1,15.9-10.023c8.692-3.583,17.767-4.668,18.011-3.838s-8.09,4.117-12.059,5.56c-6.289,2.286-6.891,1.849-9.319,3.288-7.467,4.427-9.985,13.422-9.631,13.626.3.172,2.207-6.212,8.692-11.119,7.707-5.833,17.8-6.494,17.775-6.578a7.147,7.147,0,0,0-1.6.348,43.036,43.036,0,0,0-8.891,3.254c-3.4,1.744-8.758,4.495-12.137,10.414-1.966,3.445-2.7,6.975-2.349,7.126.471.2,2.346-6.076,7.673-11.746,4.565-4.858,12.515-10.177,16.6-7.753,1.9,1.13,3,3.961,2.193,5.638-1.028,2.127-4.533,1.172-9.711,2.349-7.274,1.653-14.679,6.8-16.209,13.155-.546,2.269-.42,5.016.47,5.325,1.232.426,2.723-4.231,7.6-9.24,1.856-1.908,7.813-7.58,15.5-7.753,1.331-.03,2.836-.064,3.055.548.535,1.5-6.522,7.336-12.451,6.029-2.956-.651-3.986-2.714-6.187-2.193-1.609.382-2.7,1.872-4.307,5.4-3.126,6.854-5.693,12.482-3.837,14.017,2.507,2.073,12.72-3.611,12.529-8.535-.142-3.645-5.9-4.652-5.637-7.753.279-3.31,7.218-6.6,13.076-5.246,3.068.708,7.014,2.96,6.813,5.09-.294,3.121-9.519,6.288-12.921,3.288-2.925-2.579-.355-8.671-1.644-9.083-1.5-.478-6.342,7.285-7.831,16.679-.272,1.72-1.74,10.981.861,11.98,2.515.966,8.9-5.767,7.674-10.18-.849-3.059-4.813-3.046-5.09-5.481-.4-3.563,7.4-9.563,13-7.282,2.407.98,4.777,3.642,4.229,5.559-.775,2.714-6.421.536-10.571,4.621-3,2.955-2.887,6.891-7.282,9.318-.609.337-1.3.71-1.566.47-.934-.841,4.287-8.368,9.866-14.329,4.2-4.491,6.933-7.408,8.692-6.657,2.88,1.23,2.146,11.859-.548,12.608-.452.125-.871-.052-2.819-1.41-5.249-3.663-5.93-4.982-7.361-5.012-2.826-.058-5.054,4.993-6.029,7.2-2.915,6.607-4.1,15.763-1.566,16.836s7.795-6.255,8.536-7.282c2.806-3.9,4.542-8.257,4.071-8.536-.8-.474-7.82,10.959-8.613,10.493-.817-.479,5.715-13.144,6.029-13,.415.192-10.851,22.3-8.614,23.648,1.978,1.191,13.8-14.292,13.234-14.8-.582-.525-15.091,14.352-15.112,14.329s8.189-8.6,16.757-19.028c3.056-3.72,5.059-6.337,4.463-7.047-.735-.879-5.342,1.279-8.848,3.915-6.665,5.01-9.481,12.528-15.112,27.563a37.375,37.375,0,0,0-1.958,8.145c-.227,1.789-1.032,8.109.47,8.613,1.848.621,6.732-7.712,6.029-8.3-.47-.393-3.54,2.6-5.09,4.307-2.045,2.251-3.592,3.951-3.132,4.776.8,1.446,7.948.554,9.161-2.662.946-2.5-2.513-4.278-3.21-10.18a10.591,10.591,0,0,1,.783-6.5c2.313-4.309,8.606-5.988,9.71-4.62,1.22,1.512-3.357,7.42-5.951,10.258-3.852,4.214-6.737,5.384-6.342,6.42.495,1.3,5.95,1.809,8.613-1.252,2.97-3.414,1.035-9.615-1.174-10.18-3.257-.833-8.307,10.271-8.457,10.18-.171-.1,6.252-14.768,11.119-13.86,1.88.351,3.513,3.018,2.976,4.776-.675,2.211-4.89,3.338-6.812,1.958-2.364-1.7-1.871-7.627,1.018-10.649,2.4-2.513,4.473-.942,8.77-3.916,1.192-.824,4.646-3.287,5.482-7.439.04-.2.761-3.909-.392-4.542-1.343-.737-5.6,2.509-18.793,20.985" transform="translate(-205.228 -34.116)" fill="none" stroke="#efe300" stroke-miterlimit="10" stroke-width="1"/>
    <path id="Path_142" data-name="Path 142" d="M395.782,214.289a67.866,67.866,0,0,1,10.963.94c18.591,3.13,33.014,13.584,32.418,14.878-.414.9-8.376-1.939-9.084-2.193-10.609-3.808-12.9-8.168-20.2-8.457-3.3-.131-8,.557-8.3,2.193-.687,3.686,20.853,12.342,22.238,10.023,1.348-2.256-14.57-17.94-20.829-14.409-4.05,2.286-4.461,12.841.627,19.107,6.729,8.292,20.882,6.362,21.455,4.229.116-.432-.229-.869-.8-1.546-3.179-3.77-10.008-6.229-12.983-3.935-4.2,3.236,1.146,14.5-.313,15.034-1.752.637-12-13.724-7.048-20.672a8.945,8.945,0,0,1,4.794-3.061c6.845-2.346,17.247.077,20.264,7.446,1.669,4.076,1.465,10.611-2.819,13.468a8.675,8.675,0,0,1-5.831,1.444,6.724,6.724,0,0,1-4.035-1.756c-2.816-3.05-1.171-10.672,2.976-13.155,4.513-2.7,10.246,1.723,11.9-.47,1.36-1.8-1.062-6.694-4.542-9.4-6.564-5.1-15.963-1.672-17.54-1.1-2.755,1-4.68,1.706-6.108,3.6-3.565,4.733.054,11.485,1.566,19.577,1.995,10.683-.495,19.372-2.663,26.936-5.417,18.9-18.141,27.9-15.661,30.7,1.5,1.694,7.659.1,8.614-2.976.94-3.03-3.113-7.7-5.482-7.2-3.663.77-4.48,14.15-2.663,14.721,1.446.455,2.784-7.76,10.964-15.034,5.636-5.014,10.242-5.775,10.022-8.144-.283-3.058-8.363-6.173-10.963-3.759-3.167,2.941,2.464,13.465,3.915,13.155.818-.174-.138-3.687,1.1-10.022.822-4.218,1.777-9.118,5.638-12.216,3.13-2.512,7.953-3.665,9.083-2.193,1.3,1.7-1.87,7.471-4.385,7.361-2.125-.093-2.046-4.96-5.481-12.216-4.568-9.648-9.947-12.3-8.77-14.408,1.693-3.038,14.585-.7,15.5,3.6.359,1.684-1.362,2.512-3.6,7.2-.825,1.727-3.773,7.9-2.349,9.083,1.635,1.357,10.03-3.04,11.9-10.18.811-3.093.778-8.154-1.88-9.4-2.642-1.236-7.209,1.62-8.144,4.855-1.752,6.063,7.083,14.26,10.65,13,1.792-.635,2.9-3.919,2.035-6.108-1.123-2.837-5-2.394-5.481-4.542-.542-2.412,3.475-6.847,7.361-6.108,1.594.3,3.649,1.568,3.6,2.976-.085,2.5-6.67,2.091-12.216,6.578-6.965,5.635-9.2,16.478-6.891,18.166.793.581,2.089.054,3.759-.626a16.89,16.89,0,0,0,7.517-6.421c3.92-5.863,12.281-18.372,7.831-23.335-3.609-4.024-14.907-2.272-18.794,3.642-.938,1.428-1.186,3.125-1.644,6.46-1.37,9.98.7,13.353-1.174,19.028-1.672,5.07-5.48,8.927-6.108,8.574-1.091-.612,5.2-15.139,32.654-68.008" transform="translate(-78.779 -33.881)" fill="none" stroke="#efe300" stroke-miterlimit="10" stroke-width="1"/>
    <path id="Path_143" data-name="Path 143" d="M338.5,241.672c2.983,1.924,6.96,4.649,11.452,8.222,3.19,2.539,5.711,4.542,5.462,4.934-.345.543-6.381-1.464-11.393-5.99-2.713-2.451-3.117-3.825-4.522-3.817-4.186.02-8.382,12.262-6.93,13.154.924.569,5.092-2.861,5.814-7.282a8.914,8.914,0,0,0-1.233-6.225c-1.146-1.649-2.59-2.161-2.467-2.408.21-.418,4.646.466,8.105,3.523,3.8,3.364,5.011,8.1,4.522,8.4-.544.327-2.767-5.083-6.519-5.168-2.422-.054-4.74,2.126-5.873,3.993a8.764,8.764,0,0,0-1.175,3.348" transform="translate(54.181 -36.069)" fill="none" stroke="#efe300" stroke-miterlimit="10" stroke-width="1"/>
    <path id="Path_144" data-name="Path 144" d="M327.144,170.775a32.493,32.493,0,0,0-12.215,11.159c-.494.794-2.408,3.878-1.762,4.463.482.437,1.969-.907,7.047-4.346,4.629-3.135,6.718-4.27,7.517-6.93.125-.414.669-2.226,0-2.7-1.365-.971-6.747,4.379-9.161,7.048-2.208,2.441-3.312,3.662-3.054,3.993.578.74,7.434-3.41,9.631-7.869.178-.361.7-1.416.47-1.585-.342-.255-2.148,1.641-2.878,2.408-10.951,11.489-10.713,10.926-17.091,18.558-4.287,5.129-5.867,7.147-6.812,10.571a13.545,13.545,0,0,0-.469,7.048c1.9,7.532,13.361,13.078,17.736,9.866,4.12-3.023,2.666-14.329-1.526-16.091-2.816-1.184-5.921,2.332-6.813,1.526-2.573-2.324,19.822-34.728,22.318-33.24,1.429.852-2.516,13.518-12.216,20.32-3.794,2.661-9.537,5.173-10.689,3.759-2.856-3.507,23.643-29.774,26.193-32.3,11.077-10.979,12.744-10.962,19.263-18.911,5.664-6.906,6.465-9.432,16.131-21.612,8.82-11.113,9.827-12.333,9.827-12.333,5.026-6.086,8.822-10.353,11.428-17.365a40.862,40.862,0,0,0,1.492-4.953,5.137,5.137,0,0,0-1.175-3.641c-.5-.545-.963-.707-1.88-1.644s-1.368-1.4-1.409-1.88c-.145-1.685,4.164-3.3,6.24-4.071,3.666-1.37,6.289-2.351,8.089-.979a3.74,3.74,0,0,1,1.41,2.467c.224,2.538-2.941,3.344-4.934,7.165-1.66,3.183-1.353,6.247-1.762,6.225-.594-.032.524-6.425-2.818-8.927-1.434-1.074-2.744-.724-2.937-1.527-.353-1.475,3.59-4.615,7.4-4.111a3.622,3.622,0,0,1,2.467.939c1.123,1.341.654,4.472-7.987,18.089-3.9,6.142-5.848,9.214-7.753,11.628-7.148,9.061-11.449,10.773-11.393,15.74.027,2.413,1.076,4.966,2.7,8.927,1.635,3.981,2.658,4.969,2.585,7.282a9.357,9.357,0,0,1-4.346,7.4c-4.564,2.811-11.357.919-13.625-3.406-3.019-5.757,2.787-14.293,8.1-14.447a7.318,7.318,0,0,1,6.225,3.993c1.784,3.374,1,8.514-1.879,9.631-2.751,1.07-6.857-1.759-6.812-3.759.037-1.629,2.825-2.443,2.7-4.58-.063-1.094-.842-1.719-.588-2,.381-.416,2.723.333,3.524,1.88,1.59,3.066-3.316,8.4-4.229,9.4A28.957,28.957,0,0,1,359.8,152.8a208.406,208.406,0,0,0-23.961,16.914c-1.272,1.02-3.241,2.637-2.936,4.229.518,2.705,7.05,2.417,8.927,6.812.73,1.71.193,2.81.822,3.054,1.312.509,4.008-4.141,10.34-13.177,1.083-1.545,2.287-3.216,4.7-6.557,8.96-12.431,9.523-12.133,11.158-15.269,4.726-9.063,4.254-19.667,2.467-20.2-.9-.27-3.233,3.575-7.869,11.277-4.769,7.919-4.253,7.774-5.873,9.984-4.96,6.766-8.435,6.284-15.387,12.92-6.027,5.752-11.658,13.984-10.219,15.622,1.23,1.4,8.02-1.56,12.451-6.108,1.73-1.776,1.632-2.286,4.111-5.286a44.487,44.487,0,0,1,8.81-8.34c-.061-.075-10.967,6.029-12.686,15.622-.178,1-.658,3.675.236,4.111,1.6.782,7.948-5.483,6.46-8.81-1.042-2.331-5.685-2.668-8.692-2-9.074,2.029-12.187,15.255-12.451,16.445" transform="translate(38.29 -23.02)" fill="none" stroke="#8c8200" stroke-miterlimit="10" stroke-width="1"/>
    <path id="Path_145" data-name="Path 145" d="M277.5,77.694a150.463,150.463,0,0,1,31.83,24.666c7.029,7.2,11.128,12.955,10.924,19.851-.127,4.3-1.88,7.464-3.642,10.453a218.463,218.463,0,0,1-20.437,28.778c-.974-1.536-2.4-3.705-4.229-6.225a98.268,98.268,0,0,0-18.324-19.968A83.94,83.94,0,0,0,252.246,122.8a35.584,35.584,0,0,0,10.336-11.746c6.095-11.393,2.884-21.766,10.454-27.955a15.922,15.922,0,0,1,6.616-3.132c1.993,1.505,4.979,3.777,8.574,6.578,16.19,12.61,24.6,16.355,24.588,23.178,0,.717-.09.221-1.1,4.385-2.334,9.657-2.051,13.137-3.288,18.324-.9,3.771-3.633,15.255-8.77,15.975-5.438.761-6.766-11.4-18.794-17.541-9.084-4.634-17.666-2.458-18.48-5.951-.7-3.023,5.719-4.668,7.673-11.746,1.6-5.786-1.6-8.664.47-11.433,3.7-4.953,18.585-2.01,19.107,1.723.3,2.156-7.673,2.016-9.4,6.891-1.6,4.527,4.048,7.708,6.735,17.853,1.373,5.186,2.145,12.845.156,13.626-2.473.97-9.6-8.54-12.216-18.95-1.077-4.295-3.164-12.615,1.566-17.541a10.914,10.914,0,0,1,6.734-3.132c9.315-.6,16.711,12.909,15.035,14.878-1.241,1.459-6.568-4.469-14.721-3.446-6.429.808-13.491,5.795-13.312,10.18.338,8.277,26.662,18.968,34.767,11.119,7.089-6.864-1.122-26.591-11.433-37.116-2.964-3.026-9.076-9.264-15.191-7.831-5.417,1.27-7.966,7.885-10.963,15.662-3.678,9.542-6.241,16.194-3.035,21.021,5.233,7.881,23.318,7.112,30.129.121.912-.937,2.717-3.108,6.108-6.264,6.03-5.613,7.7-5.607,8.457-5.482,2.848.472,4.832,4.609,5.325,7.518,1.84,10.886-13.452,26.96-22.4,24.744-14.687-3.64-16.907-57.768-7.83-60.764,1.813-.6,7.811,5.022,19.733,16.287,11.473,10.841,12.421,12.472,13,14.095,5.187,14.57-17.315,34.5-21.612,38.213" transform="translate(162.991 -22.965)" fill="none" stroke="#efe300" stroke-miterlimit="10" stroke-width="1"/>
    <path id="Path_146" data-name="Path 146" d="M353.39,167.858c-5.958-10.441-17.046-25.629-35.864-33.984a68.194,68.194,0,0,0-7.517-2.819,3.8,3.8,0,0,0-.627,1.723c-.19,2.085,1.63,3.733,2.506,4.7a14.364,14.364,0,0,1,3.445,10.649c-.695,4.887-5.774,9.378-10.336,9.867-1.469.157-2-.2-3.132.313-2.862,1.284-2.8,5.026-4.542,8.927-1.386,3.1-2.343,2.787-8.144,9.084-5.954,6.462-8.931,9.693-9.084,12.372-.275,4.83,4.254,5.3,6.891,13.938.392,1.285-.06.121,1.722,11.119,1.218,7.516,1.516,8.6,1.41,11.276-.152,3.794-.88,4.877,0,5.951,2.125,2.595,9.484.072,13.626-2.036,2.423-1.233,11.947-6.082,11.119-11.9-.449-3.149-3.925-6.56-7.361-6.108-2.213.292-4.614,2.213-4.7,4.542-.127,3.509,5.071,6.116,6.421,5.168s-.009-6.329-1.722-6.578c-2.42-.351-3.8,9.76-7.048,9.866-3.768.123-9.215-13.266-7.517-26.31.641-4.928,1.84-14.144,9.24-18.167,6.1-3.314,15.4-2.564,18.167,2.193,2.459,4.235-1,10.386-3.446,14.721-2.865,5.089-4.486,5.22-11.119,13.312-7.584,9.254-8.833,13.193-9.239,16.287-.19,1.445-.958,7.286,1.879,9.084.793.5,1.52.467,10.963-2.35,3.538-1.055,4.878-1.48,6.265-2.818.136-.132,2.847-2.805,2.819-5.482-.055-5.158-10.238-6.165-19.733-13.782-2.958-2.372-13.706-10.993-13.155-21.455.62-11.792,15.287-20.077,17.227-21.142,7.472-4.1,10.95-2.613,15.035-7.361,4.4-5.118,5.933-13.324,2.976-18.794a12.907,12.907,0,0,0-6.421-5.638,106.666,106.666,0,0,0,27.094,21.3c2.063,1.117,6.775,3.559,6.421,5.795-.317,2-4.407,1.98-9.24,5.795-1.642,1.3-2.453,2.311-5.012,5.481-8.572,10.621-1.519,1-10.023,12.372-18.59,24.852-33.271,38.163-29.13,47.61.907,2.069,6.255,5.316,7.831,6.264.336.2.962.559,2.662,1.567a12.975,12.975,0,0,0,2.193,1.252c2.988.362,8.525-16.175,6.891-16.914-.63-.284-2.562,1.675-8.3,11.589" transform="translate(104.249 -27.229)" fill="none" stroke="#efe300" stroke-miterlimit="10" stroke-width="1"/>
    <path id="Path_147" data-name="Path 147" d="M291.957,209.976c5.873-8.249,10.422-14.912,13.508-19.5,3.148-4.679,5.434-8.18,6.46-7.753.99.413.547,4.381-.7,7.518-1.043,2.616-2.794,5.016-6.812,8.339-6.861,5.673-8.909,4.587-11.981,7.987-5.528,6.12-5.319,16.755-2.936,17.737,2.421,1,7.977-7.6,8.222-7.987,5.39-8.437,2.9-12.173,7.048-21.73a45.331,45.331,0,0,1,14.8-18.324c4.6-3.437,10.322-6.321,10.923-5.521.54.72-3.219,4.2-8.692,9.631-14.132,14.013-21.285,21.182-25.606,29.13-5.691,10.469-7.072,21.133-6.108,21.494,1.2.449,8.422-14.047,13.508-26.075,7.174-16.964,10.437-29.827,20.555-34.415.338-.153,4.407-1.977,4.934-1.175.877,1.334-8.66,8.99-10.571,10.572-8.78,7.264-20.937,22.284-36.177,56.027" transform="translate(125.042 -30.272)" fill="none" stroke="#fff143" stroke-miterlimit="10" stroke-width="1"/>
    <path id="Path_148" data-name="Path 148" d="M337.94,47.335a126.022,126.022,0,0,1,35.707-20.829,129.47,129.47,0,0,1,41.815-8.145,164.274,164.274,0,0,1,70.162,13c14.706,6.19,33.427,14.324,49.645,33.515,9.02,10.672,16.114,23.076,15.192,23.8-.385.3-2.138-1.445-3.446-.764-1.13.589-.731,2.369-1.233,3-2.485,3.1-31.374-16.7-54.521-29.639-19.187-10.728-28.782-16.092-38.056-16.6-20.776-1.139-35.158,10.916-44.947,2.819-3.076-2.544-5.992-7.32-4.7-10.806,3.483-9.391,36.789-7.457,61.078-1.1,42.42,11.11,73.155,39.869,71.884,41.972-.707,1.169-12.147-4.512-16.914-7.048-14.657-7.795-17.28-13-26.467-18.793C474.466,39.95,451.777,40.338,436.448,40.6c-14.509.248-24.251,2.657-25.528-.627-1.23-3.163,6.076-9.861,13-13.312C449.6,13.856,485.265,38.1,491.887,42.793,517.335,60.835,533.381,87.66,529.63,91.5c-3.785,3.874-21.863-21.676-60.608-30.069-36.7-7.95-52.934-8.927-52.934-8.927-9.7-.584-20.756-.657-24.118-7.2-2.492-4.854,0-11.8,3.446-15.975,13.034-15.785,51.532-6.242,51.838-.627.12,2.185-5.525,4.109-9.552,5.482-22.522,7.675-37.239-5.362-55.127,3.288-.593.287-8.943,4.386-8.3,7.048,1.033,4.28,25.314,4.858,27.094-.939,1.251-4.078-8.294-12.394-18.48-13.938-8.65-1.311-11.1,6.109-25.058,9.866a59.712,59.712,0,0,1-19.577,1.723c-14.212-1.181-24.881-7.886-30.852-12.53" transform="translate(-118.035 -18.212)" fill="none" stroke="#fff" stroke-miterlimit="10" stroke-width="1"/>
    <path id="Path_149" data-name="Path 149" d="M328.915,114.271a30.8,30.8,0,0,0,26.311-19.733c4.272-11.339,1.154-23.983-5.873-31.244a28.637,28.637,0,0,0-11.511-7.047,19.7,19.7,0,0,1,9.084,6.734,18.068,18.068,0,0,1,2.74,14.487c-1.5,5.744-5.386,6.7-11.041,12.763-1.868,2-15.1,16.589-12.215,32.418A27.72,27.72,0,0,0,331.5,134c8.2,11.638,23.345,17.131,25.919,14.1,2.154-2.541-6.546-8.635-11.276-24.118-1.253-4.1-5.368-18.242,0-33.515.922-2.623,6.652-18.932,15.034-19.107,6.515-.135,7.931,9.617,20.986,16.914,7.409,4.142,15.738,5.912,15.974,5.325.421-1.048-22.884-14.839-29.443-8.77-2.134,1.974-2.18,5.759-1.566,8.144,1.643,6.391,9.885,10,10.336,9.4.81-1.078-19.943-20.53-24.118-17.54-1.682,1.2.213,7.71,4.072,20.672,2.1,7.063,5.156,16.55,5.012,16.6-.234.082-6.395-25.361-12.529-25.058-4.033.2-6.505,11.446-9.084,23.179-3.571,16.246-3.542,28.289-3.445,39.465.09,10.393.17,19.621,2.505,20.047,2.182.4,6.865-6.787,7.831-14.721,1.874-15.4-11.751-21.213-14.721-42.6-1.015-7.307-1.041-18.269,2.505-19.42,3.094-1,7.684,5.857,21.612,26.624,14.846,22.135,22.3,33.189,24.118,32.576,4.058-1.373,5.184-24.088-6.264-41.659-9.853-15.122-21.208-14.446-25.842-28.934-3.366-10.528-1.733-24.53,5.521-28.542,3.168-1.751,6.435-1.061,12.568.235,14.322,3.026,17.485,9.413,27.6,10.219,8.013.639,7.689-3.236,16.8-3.759,18.359-1.054,34.834,13.819,36.529,15.387S464.5,100.474,470.2,100.733a9.179,9.179,0,0,0,2.718-.322c3.674-1.1,5.251-4.559,5.4-4.463.329.208-6.267,17.023-12.8,16.326-2.681-.285-4.107-3.386-7.748-10.673-4.675-9.357-9.47-18.956-12.454-23.86-4-6.568-11.27-18.518-22.552-20.555-13.722-2.478-28.088,10.664-34.18,23.257-1.184,2.448-9.206,19.717-.469,35.237,9.724,17.276,33.153,19.84,48.275,16.444,22.285-5.005,35.309-24.93,33.945-26.663-1.17-1.487-16.555,5.809-28.307,17.853-19.349,19.831-14.834,38.165-28.424,43.107-11.934,4.34-30.562-4.288-38.879-16.209-7.107-10.185-7.6-24.091-19.732-30.186-2.452-1.232-4.643-1.776-4.817-3.289-.547-4.778,19.543-14.691,28.856-8.417,4.161,2.8,3.6,7.1,6.265,14.095,7.128,18.715,27.011,29.584,29.756,27.25,3.152-2.681-17.453-21.784-16.6-51.056.16-5.49.479-16.488,7.2-20.359,8.417-4.846,22.1,4.22,30.383,9.71,9.79,6.487,16.343,13.852,15.661,14.721-1.192,1.517-22.073-19.718-34.141-13.782-6.027,2.965-9.2,12.383-6.578,18.48,4.366,10.156,25.407,12.492,27.876,7.831,4.389-8.285-43.555-50.651-59.2-41.345-11.024,6.557-5.573,38.52-1.566,62.017,4.028,23.621,11.093,44.677,7.83,46.044-3.319,1.39-11.54-20.026-22.865-19.42-4.582.245-7.411,4.065-13.781,12.529-17.988,23.9-27.025,35.84-29.13,35.081-3.266-1.178-1.6-15.255,1.566-25.058,1.786-5.522,4.123-12.752,10.336-18.794,11.074-10.766,21.43-5.088,30.383-14.408,10.181-10.6,6.559-28.11,6.264-29.443-4.087-18.457-22.873-31.753-28.19-28.5-9.214,5.632,15.01,65.25,25.684,78.619,3.291,4.122,9.824,9.521,12.215,19.419.565,2.338.795,4.495,2.193,5.012,3.643,1.346,13.007-9.257,15.975-18.167,8.315-24.967-31.587-42.7-30.069-78.619.722-17.089,10.693-35.261,20.986-36.333,14.151-1.473,36.057,28.635,42.284,57.946,2.268,10.674,2.107,19.6,7.517,21.612,6.8,2.53,19.99-6.738,20.986-18.166.625-7.167-3.437-16.435-9.4-17.541-12.425-2.306-30.729,31.308-39.152,51.367-9.251,22.031-9.027,33.536-17.853,36.961-10.619,4.119-24.977-7.085-35.708-17.541" transform="translate(-55.92 -21.251)" fill="none" stroke="#fff" stroke-miterlimit="10" stroke-width="1"/>
    <path id="Path_150" data-name="Path 150" d="M388.761,146.885a62.163,62.163,0,0,1,16.209,21.847,64.106,64.106,0,0,1,5.168,22.082c.467,6.182.923,13.117-1.879,21.142-1.9,5.451-3.091,5.056-5.4,10.806-2.87,7.143-3.137,12.98-3.523,23.492a174.832,174.832,0,0,0,.7,23.257c-.9,1.508-2.172,3.619-3.759,6.108,0,0-4.627,7.261-9.4,13.625-6.55,8.741-10.35,10.625-17.384,18.559-7.7,8.684-17.712,19.976-19.028,35-.787,8.983,2.494,8.338,1.88,17.619-.971,14.649-10.158,31.541-25.606,37.352-6.284,2.364-13.257,3.152-13.626,2.114-.308-.872,4.139-2.792,11.277-7.283,7.647-4.811,12.331-7.758,15.974-11.98,8-9.27,8.747-22.1,7.518-22.552-1.277-.473-7.943,11.184-12.216,22.787-2.624,7.126-2.582,9.443-5.4,12.216-7.292,7.167-21.75,5.615-22.552,2.584-.758-2.865,11.323-4.614,23.257-16.914,10.966-11.3,17.217-26.779,14.8-28.66-.858-.667-2.763.411-4.7,1.644-22.673,14.445-34.533,37.586-34.533,37.586-8.231,16.062-9.511,26-10.1,25.842-1.235-.335-.529-45.177,25.136-60.609,11.173-6.718,21.211-4.335,26.545-12.92,6.88-11.072,3.3-28.983-3.759-31.714-4.346-1.683-8.8,2.894-14.565.235a12.981,12.981,0,0,1-5.873-6.108c-1.355-2.675-1.9-5.785,1.488-26.545a39.6,39.6,0,0,0,.627-7.518,49.791,49.791,0,0,0-1.253-9.4,123.516,123.516,0,0,1-1.41-13.313c-.594-9.6,4.965-15.484,16.287-36.49,3.777-7.006,4.435-11.1,8.614-16.914,2.1-2.915,2.114-2.392,10.336-11.433,11.42-12.556,10.473-12.56,16.053-17.932,3.356-3.23,4.852-4.339,6.871-7.282,3.564-5.194,3.9-9.014,5.873-9.1,1.12-.051,1.484,1.156,6.4,7.752.85,1.141,1.916,2.531,4.047,5.313,3.811,4.974,3.841,4.887,4.292,5.553,4.537,6.69,2.591,17.075,1.352,17.207-.31.033-.516-.579-2.6-6.519-3.8-10.808-4.089-11.554-4.542-12.529-2.917-6.268-7.72-11.474-8.613-10.963-1.543.882,12.049,16.836,10.805,37.586-.126,2.116-1.963,8.876-5.637,22.395-4.192,15.425-7.025,23.729-2.976,31.635,1.547,3.02,3.759,6.308,4.7,5.951,1.927-.731-3.291-16.039-7.165-38.722-3.479-20.369-5.947-34.821-.939-37.352,5.432-2.746,19.4,8.672,17.736,14.1-1.758,5.721-21.807,7.651-26.9.235-5.575-8.123,9-24.241,6.343-26.311-2.939-2.291-27.963,11.861-26.781,33.123.525,9.449,6.293,21.485,13.508,21.964,13.733.915,31.024-40.148,21.73-50.976-1.548-1.805-6.088-5.393-6.108-10.689-.012-3.278,1.715-5.453,1.41-5.638-.675-.408-9.439,10.083-16.092,24.549-1.2,2.619-13.092,28.815-7.165,32.888,4.195,2.882,17.953-4.868,17.5-12.1-.392-6.283-11.5-12.023-19.146-9.749-12.509,3.722-14.634,28.59-14.8,28.543s.22-21.973,16.327-35.59c10.554-8.924,23.227-10.357,23.374-9.984.128.324-9.209,1.995-14.683,9.748-3.654,5.178-6.262,14.025-2.584,19.028,3.227,4.39,8.481,2,19.968,7.4,5.4,2.537,10.01,4.706,9.984,7.4-.057,5.939-22.586,5.038-27.72,17.266-3.557,8.475,3.343,18.249,3.994,19.146,5.268,7.253,15.152,11.975,17.853,9.514,3.236-2.948-1.411-18.405-10.1-21.142-11.63-3.663-21.959,18.15-35.237,14.682-7.314-1.91-13.254-10.9-11.629-16.8,3.144-11.417,36.675-18.787,45.691-7.048,8.52,11.093-4.92,39.16-21.26,43.342-8.863,2.268-13.363-3.828-19.732-.94-15.8,7.16-13.085,55.97-3.289,58.259,6.528,1.526,10.889-18.853,39.466-45.574,8.53-7.975,13.864-11.51,13.155-12.685-1.376-2.279-25.194,4.862-41.815,23.022-15.129,16.529-21.682,39.33-17.853,41.814,5.186,3.367,32.716-28.428,38.408-35.354,4.213-5.126,7.407-9.942,14.8-17.619,3.777-3.922,5.01-4.811,4.7-5.4-1.275-2.425-27.713,1.48-35.708,19.027-4.846,10.639-2.129,24.57,1.175,25.137,4.221.723,16.666-19.126,8.927-32.536-2.566-4.447-8.184-9.627-14.683-9.4-17.985.636-26.136,42.118-27.485,48.98-2.4,12.195-.984,15.785,1.057,17.384,4.5,3.523,15.147-.193,21.613-6.343,16.1-15.319,16.944-55.915,0-76.817-2.572-3.172-7.135-7.844-6.813-14.213.428-8.454,9.223-15.126,16.092-17.853,2.143-.851,15.107-6,22.9,1.526,3.678,3.55,6.306,10.017,4.229,15.035-3.743,9.04-21.872,11.236-34.18,9.514-7.825-1.095-10.633-3.4-13.978-1.292-5.936,3.745-7.229,17.41-1.879,26.311,3.862,6.424,9.168,7.014,9.984,12.92.624,4.513-1.637,10.232-5.286,11.041-3.55.787-8.156-3.133-9.279-7.282-2.331-8.609,10.063-19.21,18.441-24.079,11.411-6.631,30.079-11.173,36.411-3.172,3.071,3.881,2.076,9.24,1.762,10.924-2.441,13.131-20.445,26.527-34.3,20.32-13.193-5.913-17.831-27.458-9.4-36.06,4.669-4.762,13.76-5.977,20.555-2.114,11.215,6.375,9.946,23.033,7.635,23.962-1.685.677-5.906-6.215-8.574-10.572-4.05-6.613-6.361-10.385-5.05-12.333,2.744-4.077,16.845,6.568,29.481.823,6.543-2.975,11.363-9.739,9.984-12.685-1.709-3.652-11.577,1.466-24.079-3.055-10.63-3.843-16.878-12.383-17.384-11.863-.63.648,13.187,9.733,14.33,23.256.765,9.038-4.675,13.627-2.232,16.445,4.646,5.356,29.861-4.83,29.364-12.333-.294-4.457-9.679-8.208-17.031-8.81-8.548-.7-10.724,3.154-18.676,3.054-7.651-.1-20.341-3.849-23.727-14.213-3.461-10.6,4.606-22.612,13.978-26.545,1.49-.625,9.079-3.81,14.213.118,6.661,5.1,4.549,18.621.939,19.733-5.106,1.572-11.991-22.073-20.438-20.908-7.2.995-11.823,19.524-11.51,34.18.18,8.46,1.843,8.1,2.349,16.092.907,14.322-4.169,19.679-13.155,51.447-2.536,8.963-4.2,15.864-2.585,24.431.416,2.2,2.765,14.616,8.692,15.622,6.628,1.123,16.742-12.192,14.33-21.613-1.532-5.982-7.554-8.205-10.689-10.689-22.724-18,23.769-114.994,25.723-114.129,1.452.641-32.965,50.3-29.443,122.469,1.131,23.167,7.06,66.841,22.865,69.535,6.687,1.14,14.753-5.123,18.48-11.276,4.362-7.2,3.194-14.92,1.253-26.624-3.644-21.969-10.619-25.63-8.144-37.9,1.4-6.927,5.095-13.067,8.731-19.107,6.851-11.377,11.614-13.8,10.689-17.736-1.555-6.622-18.135-13.047-31.126-8.105-18.136,6.9-11.614,29.229-35.473,47.806-3.709,2.888-9.99,7.116-13.038,15.27-2.25,6.018-3.218,15.464,1.175,19.027,8.434,6.842,35.107-9.228,33.592-15.269-1.339-5.344-25.762-7-44.986,2.349-7.476,3.636-21.1,8.893-23.609,20.79-2.247,10.661,5.572,20.224,7.282,22.317,6.662,8.147,21.6,11.494,51.212,17.853,9.852,2.116,15.79,3.106,23.021.939,2.816-.843,12.764-3.993,18.206-13.977,1.188-2.179,6.947-12.744,1.762-21.612-5.086-8.7-18.081-11.28-26.9-7.048-13.8,6.626-15.585,29.1-9.044,33.828,7.581,5.483,30.751-9.658,29.247-17.149-1-4.979-12.263-3.392-44.868-10.336-22.618-4.818-33.787-9.114-37.234-4.346-3.841,5.313,7.556,14.068,3.875,25.136-3.3,9.924-14.575,9.243-17.853,19.381-3.034,9.382,2.8,21.784,7.517,21.965,6.066.232,5.707-19.921,21.5-44.4,5.849-9.069,20.753-31.488,44.986-35.237,2.382-.368,17.6-2.723,20.556,3.172,4.382,8.743-17.556,36.957-44.987,42.05-26.936,5-41.233-15.624-57.594-8.652-10.19,4.343-21.109,19.36-20.985,69.222" transform="translate(87.436 -28.494)" fill="none" stroke="#fff" stroke-miterlimit="10" stroke-width="1"/>
    <path id="Path_151" data-name="Path 151" d="M382.945,49.234c20.175,9.344,40.705,21.668,39.466,33.828-.933,9.156-13.638,12.622-28.19,23.962-23.074,17.979-43.538,47.13-38.057,54.97,5.721,8.182,44.226-.42,48.862-17.853,3.817-14.353-17.971-24.738-37.586-65.776-8.886-18.59-13.862-29-9.438-35.732,13.456-20.471,104.972,6.654,104.344,24.1C462.1,73.6,447.5,81.255,438.032,78.129c-7.419-2.449-8.065-10.323-22.317-31.126-9.366-13.672-12.627-15.439-15.5-16.209-9.608-2.573-22.76,3.874-26.311,14.095-2.17,6.246-.128,12.1.47,13.742,6.165,16.931,26.282,13.833,37.469,31.714,1.21,1.933,9,14.8,4.111,27.485-4.753,12.336-18.4,16.46-21.846,17.5-13.184,3.984-24.639-.451-35-4.464-9.868-3.821-14.8-5.731-17.031-10.336-4.75-9.814,4.955-22.978,18.323-41.109,8.575-11.631,11.26-12.22,12.921-11.981,5.754.828,6.087,12.588,12.921,31.361,5.271,14.483,12.719,34.188,30.186,44.987,4.459,2.757,13.424,8.3,22.9,5.286,9.539-3.034,13.492-12.788,14.213-14.565,4.568-11.274,1.915-26.869-7.282-34.3-7.9-6.381-15.808-2.841-51.212-2.936-25.476-.068-27.966-1.918-28.778-3.759-3.64-8.256,19.755-31.613,30.539-27.133,9.969,4.142,9,32.005,4.581,50.86-7.685,32.8-27.651,46.26-21.73,55.323,4.781,7.317,23.154,6.739,34.141-1.488,17.633-13.2,12-42.925,10.336-51.682-6.613-34.872-34.584-55.2-44.477-61.7" transform="translate(-60.617 -19.172)" fill="none" stroke="#fff" stroke-miterlimit="10" stroke-width="1"/>
    <path id="Path_152" data-name="Path 152" d="M372.219,252.587c-8.647,16.254-11.7,29.949-6.578,34.3,3.564,3.024,11.336,1.745,11.746-.118.521-2.376-10.087-9.551-17.736-7.635-17.851,4.471-26.245,60.116-10.571,70,2.947,1.859,7.7,2.707,10.689.7,5.333-3.576,4.987-16.231.47-18.793-7.431-4.213-27.443,18.151-30.539,21.612-8.932,9.982-34.014,41.1-34.3,86.449-.1,15.684-.193,30.862,11.041,42.755,11.208,11.864,27,13.373,33.123,13.625" transform="translate(66.157 -36.942)" fill="none" stroke="#fff" stroke-miterlimit="10" stroke-width="1"/>
    <path id="Path_153" data-name="Path 153" d="M261.807,275.226c1.435.038,9.3.348,11.433,5.011,1.093,2.387.3,5.074-.627,7.2-6.312,14.441-36.087,42.022-37.586,40.249-1.111-1.315,14.585-17.231,15.817-18.48,6.217-6.3,10.127-9.359,13.626-16.131,2.6-5.043,5.057-12.291,3.6-13.155-1.837-1.091-10.148,7.862-14.878,18.324-2.453,5.425-4.972,13.532-3.289,14.466,1.356.754,5.255-3.258,7.4-6.989,2.543-4.423,3.9-10.679,2.349-11.51-2.862-1.529-15.841,15.182-14.565,16.5.712.736,6.8-2.345,10.277-7.811,3.863-6.076,4.411-14.967,4.581-17.737.247-4-.07-6.3,1.644-7.635,2.046-1.595,6.131-1.154,8.4,1.292,1.13,1.22,2.371,3.544,1.585,5.463-.868,2.119-3.64,2.354-7.576,3.7a57.35,57.35,0,0,0-10.454,5.4c-9.02,5.629-14.021,18.041-11.8,20.085,2.114,1.95,11.328-5.04,13.742-6.871,4.91-3.725,8.619-6.539,10.4-11.628,2.189-6.276.807-14.2-2.055-14.976-1.6-.432-3.2,1.5-7.224,6.225-14.19,16.652-17.641,19.95-20.027,27.778-.686,2.251-2.383,7.817-1,8.575,1.876,1.026,8.907-7.047,12.92-15.8,2.017-4.4,4.068-8.869,2.76-9.925-3.08-2.488-19.8,18.03-22.082,25.077-.243.754-.755,2.414.059,3.583,1.207,1.733,4.544,1.255,5.05,1.175,4.077-.645,6.732-4.22,9.338-8.164a148.387,148.387,0,0,0,8.986-15.68c5.32-10.517,8.066-15.8,12.333-17.207,1-.33,3.968-1.307,6.4.235a6.039,6.039,0,0,1,2.526,3.759c.522,3.169-2.28,6-3.994,7.811-7.133,7.537-.574,2.865-12.567,15.74-12.385,13.293-14.462,13-15.27,12.744-2.857-.9-4.683-5.964-3.172-8.222,1.93-2.882,7.7,1.189,12.627-1.645,6.461-3.719,2.008-13.9,9.984-21.553,2.626-2.521,7.664-5.791,11.276-4.052a7.341,7.341,0,0,1,3.583,5.344,9.416,9.416,0,0,1-1.41,6.108c-6.663,12.072-15.894,18.784-23.9,25.841a4.4,4.4,0,0,1-2.29,1.115c-2.8.383-6.292-2.4-6.05-4.287.29-2.252,5.647-1.282,12.157-5.109,3.756-2.209,3.033-3.155,11.158-11.511,6.369-6.549,9.4-8.624,8.751-11.218a4.856,4.856,0,0,0-4.288-3.406c-5.147-.054-6.826,11.671-15.269,23.316a59.077,59.077,0,0,1-14.976,14.329" transform="translate(228.407 -38.751)" fill="none" stroke="#444" stroke-miterlimit="10" stroke-width="1"/>
    <path id="Path_154" data-name="Path 154" d="M213.8,334.3a109.721,109.721,0,0,1,4.385,15.034c4.737,21.977,1.221,38.806-2.662,59.356-9.891,52.341-5.164,38.846-12.607,73.841-7.3,34.34-11.272,44.6-7.048,47.218,7.029,4.359,29.658-16.827,43.694-37.352,10.923-15.971,30.948-45.252,23.257-75.407-5.99-23.485-23.665-27.407-31.009-59.9-3.606-15.953-2.327-28.2-2.819-28.191-.957.016-1.982,46.185,0,103.6,2.135,61.855,6.837,110.017,8.457,109.94,1.592-.075-4.509-46.533,5.638-109.235,7.025-43.406,17.585-68.321,15.5-69.065-4.466-1.6-57.722,111.653-44.4,119.807,8.607,5.268,47.42-31.852,41.58-42.99-3.506-6.685-24.195-6.094-36.8,4.385-16.6,13.795-16.476,41.5-7.674,48.236,2.205,1.687,4.562,1.754,5.951,4.385,3.244,6.144-3.085,18.129-8.457,18.01-2.931-.064-6.107-3.747-6.578-7.517-.909-7.277,8.388-13.846,17.384-20.046,11.61-8,15.611-7.658,29.286-16.131,11.48-7.113,17.22-10.669,19.263-15.975,3.626-9.416-3.954-16.009-12.685-37.116-7.81-18.876-17.644-42.651-8.144-56.849,5.619-8.4,15.87-10.26,15.817-18.167-.027-4.1-2.808-7.1-6.108-10.649-2.153-2.319-11.345-12.216-23.8-10.65-1.157.145-10.782,1.355-13.626,7.831-2.295,5.228,1.251,10.658,3.6,16.131,4.581,10.665,3.263,23.4.627,48.862-2.612,25.233-7.251,34.734-3.132,37.274,4.2,2.591,15.814-3.125,21.612-12.843,13.127-22-14.1-46.825-.783-75.329,3.071-6.572,8.4-13.551,11.119-12.685,3.313,1.053-.212,12.78,1.722,28.973,3.011,25.2,15.447,29.446,11.9,42.128-3.6,12.885-17.272,11.481-29.443,29.13-6.737,9.769-8.445,18.747-10.806,31.165-6.81,35.805,5.343,52.392-7.361,75.8-.954,1.758-7.91,14.355-12.842,13.155-5.018-1.221-7.42-16.595-5.325-29.755,4.177-26.246,24.437-32.41,45.73-73.294,5.313-10.2,7.631-16.689,7.2-24.431-.83-15.064-11.245-20.19-18.166-34.767-12.48-26.283-2.2-59.268,2.818-59.512,4.589-.224,9.354,26.716,11.277,37.586,5.141,29.066,6.962,84.58-37.9,166.633" transform="translate(267.645 -42.545)" fill="none" stroke="#f2f2f2" stroke-miterlimit="10" stroke-width="1"/>
    <path id="Path_155" data-name="Path 155" d="M229.29,679.386c2.412-4.126,17.944-31.565,6.342-53.8-4.592-8.8-12.306-14.617-15.974-17.383-18.63-14.051-31.411-8.866-35.708-17.619-6.4-13.044,15.579-37.6,28.19-48.863,13.268-11.842,17.233-9.915,23.962-17.853,21.632-25.521,10.618-80.8-6.108-84.57-14.071-3.171-33.064,29.918-40.876,49.8-7.049,17.942-15.877,52.833-3.524,60.373,10.552,6.441,36.324-7.216,36.883-20.672.6-14.529-28.082-31.321-44.634-24.2-22.565,9.712-18.164,61.972-8.692,64.837,7.61,2.3,23.5-25.762,31.244-44.634,8.2-19.97,4.713-23.389,12.685-47.218,12.226-36.548,26.975-48.087,20.907-57.554-5.786-9.026-26.648-10.162-33.828-1.644-12.518,14.852,15.509,60.307,20.908,58.493,6.509-2.186-10.46-76.246-18.559-75.642-6.629.493,7.4,49.915-20.672,95.141-17.766,28.627-44.189,42.347-39,60.608,2.177,7.655,7.731,8.448,18.089,28.19,6.211,11.841,5.692,14.373,10.571,19.969,9.721,11.146,17.3,7.427,27.016,16.444,15.032,13.954,9.331,34.429,19.028,36.882,5.748,1.455,14.458-4.043,15.739-10.571,2-10.2-15.237-17.176-44.634-44.869-14.625-13.777-22.053-20.9-27.719-32.418-7.917-16.09-14.471-43.71-2.114-53.326,9.264-7.21,27.742-3.2,30.3,3.994,2.711,7.607-11.693,20.73-22.317,27.25-10.449,6.413-17.23,6.434-17.384,9.631-.274,5.7,20.734,16.4,33.359,9.866,3.339-1.728,11.925-7.683,12.92-54.03.7-32.791-2.579-77.083-7.517-77.053-5.235.032-13.5,49.9-5.873,52.621,6.419,2.293,29.547-26.874,29.834-59.9.215-24.758-12.477-43.238-18.793-51.211" transform="translate(336.411 -47.001)" fill="none" stroke="#fff" stroke-miterlimit="10" stroke-width="1"/>
    <path id="Path_156" data-name="Path 156" d="M41.616,312.587a93.844,93.844,0,0,1,31.713,27.25c33.1,45.8-3.787,91.5,20.672,154.574,12.785,32.967,43.273,73.112,79.636,73.294,16.714.083,30.472-8.3,39.466-15.5" transform="translate(463.946 -41.736)" fill="none" stroke="#fff" stroke-miterlimit="10" stroke-width="1"/>
    <path id="Path_157" data-name="Path 157" d="M95.233,303.4c12.791,5.366,29.719,14.908,41.58,32.418,16.449,24.282,13.359,49.428,11.276,87.388-4.846,88.294-6.856,133.217,13.39,171.254,7.881,14.806,22.267,34.627,50.742,52.856" transform="translate(415.497 -41.002)" fill="none" stroke="#fff" stroke-miterlimit="10" stroke-width="1"/>
  </g>
</svg>
