<svg id="Layer_1" data-name="Layer 1" xmlns="http://www.w3.org/2000/svg" viewBox="0 0 340.19 462.43">
  <g>
    <path d="M47.88,466.71,54,369.25l1.54-24.36.38-6.1a47.58,47.58,0,0,0,.2-6.08,24.11,24.11,0,0,0-2.26-8.79,23.29,23.29,0,0,1-1.23-2.8A29.78,29.78,0,0,1,51.43,309a25.91,25.91,0,0,1,.4-3l.39-1.49c.15-.48.34-1,.52-1.44a25.54,25.54,0,0,1,3-5.33A46.6,46.6,0,0,1,64.24,289c1.58-1.29,3.2-2.52,4.89-3.66l2.51-1.75L74.26,282a85.49,85.49,0,0,1,22.55-9.18,97.78,97.78,0,0,1,24.2-3c8.13.08,16.32.51,24.27,2.4a66,66,0,0,1,11.61,3.81,56.52,56.52,0,0,1,10.53,6.18c.82.61,1.57,1.3,2.35,1.95l1.17,1c.38.34.72.72,1.09,1.08l2.15,2.18c.65.78,1.35,1.53,2,2.34a54.11,54.11,0,0,1,6.46,10.36,63.4,63.4,0,0,1,6,23.56,60.64,60.64,0,0,1-3.5,24.07A46.11,46.11,0,0,1,180,359.9a32,32,0,0,1-3.86,4.76,32.73,32.73,0,0,1-4.76,3.87l0,0a32.08,32.08,0,0,1-5.85,2.76,36.22,36.22,0,0,1-6.21,1.65,31.32,31.32,0,0,1-6.41.49,14.45,14.45,0,0,1-1.61-.07c-.53-.05-1.07-.08-1.6-.15a15.4,15.4,0,0,1-3.15-.76,20.49,20.49,0,0,1-2.94-1.33l-1.4-.79a4.62,4.62,0,0,1-1.29-1.05,3.67,3.67,0,0,1-.64-3.21,4.17,4.17,0,0,1,.74-1.51,3.2,3.2,0,0,1,1.37-1,14,14,0,0,1,6.4-.8c2.11.16,4.29.35,6.33.71h0c15.48,2.3,30.41,8,46.13,8.45a54.38,54.38,0,0,0,5.85,0,56.82,56.82,0,0,0,5.81-.69,35.84,35.84,0,0,0,11.07-3.54c6.87-3.59,12.62-9.62,15-17.07,3.62-14.91,4.23-31.72-3.33-45.64A73.4,73.4,0,0,0,230,294.86a106.6,106.6,0,0,0-7.22-9.23c-1.27-1.49-2.57-2.94-4-4.3s-2.86-2.68-4.25-4.06c-2.8-2.75-5.49-5.61-8.16-8.48s-5.29-5.78-8.08-8.51-5.65-5.43-8.65-7.93c-5.85-5.22-13-8.66-19.22-13.48-3.16-2.33-6.24-4.77-9.2-7.35-1.49-1.29-2.92-2.63-4.34-4s-2.85-2.71-4.19-4.15a32.27,32.27,0,0,1-3.67-4.64,40.19,40.19,0,0,1-2.8-5.21A29.54,29.54,0,0,1,143.61,202a33,33,0,0,1,2.17-11.59,56.82,56.82,0,0,1,2.12-5.51c.84-1.79,1.79-3.5,2.74-5.22q5.76-10.26,11.7-20.4c1-1.69,2-3.38,3-5s2.17-3.28,3.27-4.9a87.81,87.81,0,0,1,7.19-9.34,101.2,101.2,0,0,1,17.65-15.55,81.63,81.63,0,0,0,9-7.46,31.89,31.89,0,0,0,3.75-4.45,36.7,36.7,0,0,0,3-5,4.35,4.35,0,0,0,.43-1.29.62.62,0,0,0,0-.22s0,0-.08,0a1.28,1.28,0,0,0-.56,0,10.29,10.29,0,0,0-2.54,1.24,31.6,31.6,0,0,0-4.57,3.6,33.56,33.56,0,0,0-7,9.22,31.39,31.39,0,0,0-2.27,22.65c1.45,7.72,5.46,14.61,7.48,22.22,4.85,14.92,9.64,29.85,14.09,44.89,1.1,3.76,2.19,7.53,3.13,11.34.47,1.91.89,3.83,1.28,5.75s.65,3.87,1.17,5.74c1.86,7.6,5.88,14.43,8.89,21.67l4.58,10.84c1.55,3.6,3,7.24,4.38,10.92,2.67,7.37,5.53,14.65,8.79,21.77A144.88,144.88,0,0,1,255,319.88l3.61,11.19a31.41,31.41,0,0,1,1.53,11.71,29.86,29.86,0,0,1-1,5.87,24.42,24.42,0,0,1-2.31,5.47,46.26,46.26,0,0,0-4.52,10.74,70.43,70.43,0,0,0-2.45,11.42c-.1,1-.16,1.93-.2,2.9s0,1.93.08,2.9c.13,1.95.3,3.9.47,5.85.36,3.9.74,7.8,1.29,11.67.27,1.93.67,3.83,1.13,5.73a38.58,38.58,0,0,0,1.65,5.58,8.67,8.67,0,0,0,.62,1.26c.22.38.57.75.79.75s.5-.33.72-.73.43-.85.64-1.29a23.09,23.09,0,0,0,1.86-5.47c.36-1.9.71-3.85,1-5.77.11-1,.18-1.92.2-2.89l0-2.93L260,388c0-.48-.06-1-.06-1.49a3.78,3.78,0,0,1,.06-.8,1.19,1.19,0,0,1,.53-.86,1.22,1.22,0,0,1,1-.06,2.73,2.73,0,0,1,.75.35,7.28,7.28,0,0,1,1.22,1,9.11,9.11,0,0,1,1.84,2.44,14.87,14.87,0,0,1,.88,2.88l1.35,5.71c.43,1.9,1,3.79,1.48,5.68l.78,2.84a8.52,8.52,0,0,1,.35,3,7.36,7.36,0,0,1-.92,2.91,12.57,12.57,0,0,0-1,2.68,18,18,0,0,1-2.14,5.56,45.81,45.81,0,0,1-3.29,4.92,12.67,12.67,0,0,0-2.38,5.15c-.46,1.89-.92,3.81-1.31,5.71a11.67,11.67,0,0,0-.2,1.41,1.87,1.87,0,0,0,.15,1.15c.06.19.51.13.93,0a7.21,7.21,0,0,0,1.23-.64A12.27,12.27,0,0,0,265,433.3l3.13-5c2.22-3.23,3.92-6.75,5.9-10.15a54.54,54.54,0,0,1,3.24-4.94c1.14-1.59,2.18-3.22,3.17-4.91a38.56,38.56,0,0,0,4.7-10.61,35.8,35.8,0,0,0,.88-11.54,31.68,31.68,0,0,0-.92-5.73c-.48-1.88-1.1-3.74-1.6-5.65a47.87,47.87,0,0,1-1.14-5.82c-.12-1-.25-2-.3-3s0-2,0-3c0-3.9-.11-7.83-.33-11.74l-.57-11.72c-.25-3.91-.63-7.8-1.06-11.69q-1.34-11.67-3.48-23.22c-.72-3.85-1.46-7.69-2.37-11.49-.46-1.9-1-3.79-1.43-5.71s-.82-3.84-1.19-5.77c-.73-3.85-1.36-7.73-1.92-11.61s-1.06-7.77-1.81-11.6a116.37,116.37,0,0,0-2.75-11.38c-1.09-3.77-2.11-7.56-3.12-11.35l-2.95-11.38c-1-3.78-1.92-7.6-3-11.35l-3.23-11.3c-1.07-3.76-2.18-7.53-3.15-11.33s-1.84-7.64-2.55-11.51-1.29-7.74-1.9-11.61q-1.83-11.59-4.45-23.05-1.31-5.73-2.71-11.43c-.93-3.81-1.83-7.65-2.43-11.54a115.38,115.38,0,0,1-1.21-11.73c-.2-3.94-.13-7.85-.55-11.72a90.35,90.35,0,0,0-5.57-22.65,98,98,0,0,0-10.81-20.7,74.85,74.85,0,0,0-16.16-16.74,54.87,54.87,0,0,0-10-6,39.44,39.44,0,0,0-5.43-2,55.47,55.47,0,0,0-5.69-1.24A19.16,19.16,0,0,0,169,29.79c-3.41,1.7-6.12,4.64-8.45,7.7a55.41,55.41,0,0,0-5.91,10,63.78,63.78,0,0,0-3.8,11c-1,3.78-1.76,7.62-2.33,11.47s-.9,7.75-1.14,11.66a195.4,195.4,0,0,1-2.68,23.39c-1.33,7.74-3.09,15.4-5.11,23-1,3.8-2.19,7.55-3.43,11.27s-2.4,7.45-3.51,11.2c-2.2,7.51-4.3,15.06-6,22.7a101.16,101.16,0,0,0-2,11.52,103.78,103.78,0,0,0-.49,11.69,76.17,76.17,0,0,0,4,22.93,87.82,87.82,0,0,0,10.41,20.85l.29.43-.44.27-17,10.59-8.51,5.27c-2.87,1.73-5.78,3.38-8.75,4.92-5.93,3.1-12,5.9-18.17,8.49s-12.44,5-18.72,7.08h0a41.65,41.65,0,0,1-10.09,1.91A21.8,21.8,0,0,1,47,277.61a11.94,11.94,0,0,1-4.07-3.31,15.24,15.24,0,0,1-2.61-4.52,20.09,20.09,0,0,1-1.06-5.08l-.55-5.06q-.51-5.07-.91-10.14c-.15-1.68-.25-3.4-.41-5.06l-.68-5-2.75-20.14-1.39-10.08c-.44-3.35-1-6.71-1.32-10.09-.76-6.74-1.47-13.5-1.73-20.3a141.68,141.68,0,0,1,4.16-40.45v.1a12.07,12.07,0,0,1,.57-3.59,2.74,2.74,0,0,1,1.25-1.66,1.39,1.39,0,0,1,1.24.11,3.26,3.26,0,0,1,.79.67,4.35,4.35,0,0,1,1,3.67,2,2,0,0,1-.49,1,1.43,1.43,0,0,1-1.14.42,4.16,4.16,0,0,1-1.84-.66,27.42,27.42,0,0,1-9.21-10.7,37.31,37.31,0,0,1-2.6-6.59,33.47,33.47,0,0,1-1.17-7,30.59,30.59,0,0,1,.41-7.09,22.41,22.41,0,0,1,2.28-6.76,42.49,42.49,0,0,1,4.1-5.76L33.18,89c2.88-3.68,5.64-7.43,8.19-11.34a120.62,120.62,0,0,1,8.26-11.37c2.93-3.64,6-7.22,9.14-10.67s6.49-6.77,9.88-10,6.76-6.45,10.09-9.73c1.66-1.65,3.36-3.25,4.9-5A62.91,62.91,0,0,0,88,25.53a58.13,58.13,0,0,0,3.7-5.89,17.51,17.51,0,0,0,2.38-6.35,5.63,5.63,0,0,0-.65-3.15,8.09,8.09,0,0,0-2.19-2.48,30.65,30.65,0,0,0-6-3.41A39.49,39.49,0,0,0,71.94.57,40.72,40.72,0,0,0,58.19,1.89a28,28,0,0,0-12.27,6,19.62,19.62,0,0,0-4.23,5.36,20.25,20.25,0,0,0-2.08,6.51,87.25,87.25,0,0,0-.55,13.92,248.42,248.42,0,0,0,2.15,27.91l3.71,27.79c.59,4.64,1.19,9.28,1.66,13.94s.8,9.33,1,14,.17,9.36.24,14,.22,9.33.42,14,.44,9.33.74,14c.13,2.33.33,4.66.29,7a51.68,51.68,0,0,1-.71,7c-.78,4.68-2.51,9.07-4,13.49s-3,8.85-4.45,13.29C37.23,209.13,34.21,218,31.93,227a120.5,120.5,0,0,0-2.53,13.75c-.62,4.63-1.26,9.26-2,13.89S26,263.91,25.2,268.52a84.52,84.52,0,0,1-3.41,13.64c-.75,2.22-1.53,4.42-2.24,6.64s-1.36,4.46-2,6.71A126.71,126.71,0,0,0,12.67,323a108.46,108.46,0,0,0-.25,14c.14,2.33.34,4.67.37,7s0,4.69-.15,7c-.45,4.7-1.05,9.3-1.54,14s-1,9.29-1.44,13.94-1,9.29-1.35,14-.7,9.32-.62,14c0,2.34.12,4.66.37,7s.55,4.64.74,7c.4,4.67.55,9.35.71,14s.47,9.33.89,14a35.14,35.14,0,0,0,1.19,6.82,6.49,6.49,0,0,0,1.64,2.84,2.91,2.91,0,0,0,2.9.58,3.5,3.5,0,0,0,1.56-2.65,16.82,16.82,0,0,0,.22-3.42c-.06-2.33-.06-4.68,0-7l.08-7c0-2.34-.08-4.66-.13-7s0-4.69.14-7a62.4,62.4,0,0,0,.15-7,17.47,17.47,0,0,0-.6-3.38,27.44,27.44,0,0,0-1.2-3.24,32,32,0,0,0-1.61-3.07c-.3-.49-.61-1-.94-1.45l-.51-.68a3.43,3.43,0,0,0-.51-.51c0,.08.4-.1.3-.15s0,0,0,.1a3.42,3.42,0,0,0,.09.38c.08.27.18.54.28.81.21.54.43,1.07.66,1.61l1.41,3.2,2.84,6.41c.93,2.15,1.84,4.31,2.69,6.49a49.41,49.41,0,0,0,2.69,6.41,19.55,19.55,0,0,0,4.36,5.3,49,49,0,0,0,5.63,4.09c2,1.23,4,2.34,6.05,3.54s4,2.45,5.94,3.74c1,.64,2,1.31,2.94,1.88a3.23,3.23,0,0,0,1.43.54c.36,0,.48-.51.43-1.05a12.86,12.86,0,0,0-2.77-6.15,35.5,35.5,0,0,0-5-4.83c-.89-.75-1.82-1.41-2.78-2.08s-1.9-1.39-2.83-2.1c-1.85-1.43-3.72-2.84-5.45-4.45a18.9,18.9,0,0,1-4.11-5.77A35.84,35.84,0,0,1,24.93,417c-.63-2.27-1.11-4.55-1.76-6.78s-1.38-4.44-2.06-6.71a5.31,5.31,0,0,1-.18-.9,1.69,1.69,0,0,1,.14-1,1.37,1.37,0,0,1,.9-.64,3,3,0,0,1,1,0,9.18,9.18,0,0,1,3.36,1.31,13.16,13.16,0,0,1,2.78,2.27,12.59,12.59,0,0,1,1.83,3.08c1,2.12,2,4.24,3,6.34.51,1.05,1,2.1,1.56,3.12a15.5,15.5,0,0,0,1.83,2.9,27.21,27.21,0,0,0,2.57,2.31l2.73,2.2,0,0a56.61,56.61,0,0,0,7.13,4.55c1.23.68,2.49,1.31,3.76,1.92.64.29,1.28.62,1.91.86a2.26,2.26,0,0,0,1.81.09,2.08,2.08,0,0,0,.92-1.53,2.9,2.9,0,0,0-.3-1.86,3.66,3.66,0,0,0-1.43-1.32c-.3-.21-.61-.4-.9-.62l-.84-.68A39.45,39.45,0,0,1,49,419.35a59.13,59.13,0,0,1-4.55-7.21A23,23,0,0,1,42,404c-.35-2.87.14-5.71.18-8.51s0-5.63-.19-8.46a97.55,97.55,0,0,1,.72-17c.33-2.81.83-5.61,1.16-8.4a38.23,38.23,0,0,0,0-8.42,30.35,30.35,0,0,0-1.4-8.26c-.49-1.29-1.26-2.48-1.83-3.82a15.61,15.61,0,0,1-1.16-4.15,17.68,17.68,0,0,1,0-4.3,28.56,28.56,0,0,1,.75-4.21,61.14,61.14,0,0,1,2.94-8l12.44-31.6c4.41-10.42,9.05-20.76,13.32-31.24q12.91-31.39,24.15-63.46v0l0,0a10.59,10.59,0,0,0,1.39-6.7,20.74,20.74,0,0,0-1.56-6.83,11.91,11.91,0,0,0-4.72-5,34.16,34.16,0,0,0-6.49-2.77,4.67,4.67,0,0,0-3.31-.07,4.92,4.92,0,0,0-2.23,2.47,11.06,11.06,0,0,0-1.13,3.29c-.23,1.15-.39,2.32-.51,3.5s-.2,2.35-.25,3.54a5.93,5.93,0,0,1-.25,1.83,7.17,7.17,0,0,1-.94,1.59,7.08,7.08,0,0,1-2.8,2.34,8.28,8.28,0,0,1-1.74.48.28.28,0,0,0-.12.05s0,0,0,0a.79.79,0,0,0,.18.22,5.2,5.2,0,0,0,.69.47A12.14,12.14,0,0,0,76.05,194a19,19,0,0,0,6.7-2A23.7,23.7,0,0,0,93,182.51a18.29,18.29,0,0,0,1.45-3.19,21.77,21.77,0,0,0,.52-3.48c.2-2.36.34-4.73.48-7.1.28-4.74.48-9.49.71-14.23.68-19-.36-38-.61-57-.07-9.5-.45-19-.3-28.51a78.27,78.27,0,0,0-.8-14.19,68.73,68.73,0,0,0-3.6-13.73l-.07-.2H91a48.41,48.41,0,0,1,15.41,1.07,45.56,45.56,0,0,1,7.36,2.41c2.38,1,4.68,2.18,7,3.33,4.6,2.29,9.23,4.78,12.89,8.49a31.2,31.2,0,0,1,7.81,13.24,27.24,27.24,0,0,1,1,7.67,30.14,30.14,0,0,1-1.14,7.66A62.46,62.46,0,0,1,138.7,92a43.87,43.87,0,0,1-3.59,6.86l-7.81,13.34a68.55,68.55,0,0,0-6.56,14v0a27.26,27.26,0,0,0-1,7.66,25.16,25.16,0,0,0,.33,3.87c.09.64.25,1.27.38,1.91a2.3,2.3,0,0,0,1,1.55,2,2,0,0,0,1.75-.36,9.25,9.25,0,0,0,1.49-1.24,27.5,27.5,0,0,0,2.53-3l2.36-3.11,2.28-3.16q4.48-6.39,8.34-13.2a137.74,137.74,0,0,0,7-14h0c2-5,4-10,5.78-15.07a65.38,65.38,0,0,0,3.64-15.67,78.28,78.28,0,0,0-4-31.77c-1.76-5.07-3.83-10.13-7.17-14.37a44.69,44.69,0,0,0-12.08-10.55A72.93,72.93,0,0,0,118.61,9,92.48,92.48,0,0,0,103,5.17,92.8,92.8,0,0,1,118.62,9a72.31,72.31,0,0,1,14.63,6.73,44.82,44.82,0,0,1,12.11,10.55c3.35,4.25,5.43,9.31,7.19,14.37a78.5,78.5,0,0,1,4.09,31.81A66.2,66.2,0,0,1,153,88.19c-1.76,5.09-3.78,10.08-5.77,15.08h0a133.47,133.47,0,0,1-7,14q-3.86,6.81-8.33,13.22l-2.28,3.17-2.36,3.12a29.84,29.84,0,0,1-2.55,3,9.46,9.46,0,0,1-1.51,1.25,2.07,2.07,0,0,1-1.92.37,2.37,2.37,0,0,1-1-1.66c-.13-.64-.3-1.27-.39-1.92a25.45,25.45,0,0,1-.33-3.9,26.73,26.73,0,0,1,1-7.77v0a68.9,68.9,0,0,1,6.56-14l7.8-13.35a44,44,0,0,0,3.57-6.83,62.86,62.86,0,0,0,2.59-7.27,29.58,29.58,0,0,0,1.12-7.59,27.06,27.06,0,0,0-1-7.6,31,31,0,0,0-7.76-13.12c-3.63-3.67-8.23-6.15-12.83-8.43-2.31-1.14-4.6-2.31-7-3.31a45,45,0,0,0-7.32-2.38A48.13,48.13,0,0,0,91,41.18l.14-.21a69.69,69.69,0,0,1,3.63,13.79A78,78,0,0,1,95.55,69c-.13,9.5.25,19,.34,28.5.26,19,1.32,38,.66,57-.23,4.75-.42,9.5-.7,14.25-.14,2.37-.27,4.74-.47,7.12a22,22,0,0,1-.53,3.56,20.33,20.33,0,0,1-1.49,3.29A24.21,24.21,0,0,1,83,192.38a19.4,19.4,0,0,1-6.87,2.06,12.58,12.58,0,0,1-7-1.57,4.68,4.68,0,0,1-.78-.53.93.93,0,0,1-.33-.5.45.45,0,0,1,.16-.42.81.81,0,0,1,.28-.14,8,8,0,0,0,1.69-.46,6.78,6.78,0,0,0,2.61-2.18,7.33,7.33,0,0,0,.86-1.47,5.69,5.69,0,0,0,.23-1.68c0-1.19.12-2.39.24-3.57s.28-2.38.52-3.55a11.71,11.71,0,0,1,1.17-3.43,5.44,5.44,0,0,1,2.48-2.69,5.13,5.13,0,0,1,3.66.05,34.2,34.2,0,0,1,6.6,2.81,12.45,12.45,0,0,1,4.92,5.22,21.3,21.3,0,0,1,1.61,7,11.11,11.11,0,0,1-1.46,7l0-.05q-11.22,32.07-24.14,63.49c-4.26,10.49-8.89,20.82-13.3,31.25L43.7,320.63a60.87,60.87,0,0,0-2.91,7.93,22.84,22.84,0,0,0-.72,8.3,15.18,15.18,0,0,0,1.12,4c.54,1.27,1.33,2.47,1.84,3.84,1,2.71,1.19,5.61,1.45,8.41a39.88,39.88,0,0,1,0,8.53c-.34,2.83-.84,5.61-1.17,8.41a97.46,97.46,0,0,0-.71,16.9c.16,2.82.3,5.66.2,8.5s-.53,5.67-.18,8.44a22.23,22.23,0,0,0,2.4,8A59.7,59.7,0,0,0,49.5,419,39.86,39.86,0,0,0,55,425.34l.81.65c.28.21.57.39.86.58a4.36,4.36,0,0,1,1.63,1.54,3.43,3.43,0,0,1,.37,2.26,2.61,2.61,0,0,1-1.23,2,2.87,2.87,0,0,1-2.3-.05c-.69-.27-1.31-.59-2-.88-1.28-.62-2.55-1.26-3.8-1.94a58,58,0,0,1-7.17-4.57l0,0-2.73-2.2a25.54,25.54,0,0,1-2.65-2.37,16.65,16.65,0,0,1-1.91-3c-.55-1-1.06-2.09-1.58-3.14-1-2.11-2-4.23-3-6.35a12,12,0,0,0-1.73-2.93A12.48,12.48,0,0,0,26,402.71a8.35,8.35,0,0,0-3.11-1.22c-.53-.08-1.09,0-1.27.34a2.46,2.46,0,0,0,.1,1.49c.66,2.2,1.44,4.44,2.06,6.7s1.14,4.55,1.76,6.78a35.7,35.7,0,0,0,2.64,6.42,18.34,18.34,0,0,0,4,5.59c1.69,1.57,3.56,3,5.41,4.41.92.7,1.86,1.4,2.8,2.08s1.93,1.35,2.83,2.11a35.71,35.71,0,0,1,5.06,4.93,13.39,13.39,0,0,1,2.91,6.49,2.51,2.51,0,0,1-.1,1,1.07,1.07,0,0,1-.9.74,3.62,3.62,0,0,1-1.82-.62c-1-.6-2-1.26-3-1.9-1.95-1.29-3.91-2.55-5.92-3.73s-4.06-2.3-6.06-3.54a50.29,50.29,0,0,1-5.71-4.14,20.1,20.1,0,0,1-4.5-5.47,48.77,48.77,0,0,1-2.74-6.5q-1.28-3.26-2.69-6.46l-2.84-6.41-1.41-3.21c-.23-.54-.46-1.08-.67-1.64-.1-.28-.21-.55-.29-.85a2.68,2.68,0,0,1-.12-.47,1.11,1.11,0,0,1,0-.33c-.09-.2.52-.5.61-.32a2.91,2.91,0,0,1,.76.69q.29.36.54.72c.34.49.66,1,1,1.49A31.21,31.21,0,0,1,16.93,411a25.54,25.54,0,0,1,1.24,3.33,18.85,18.85,0,0,1,.63,3.51,63.37,63.37,0,0,1-.15,7c-.11,2.33-.17,4.66-.13,7s.14,4.68.12,7l-.08,7c0,2.34,0,4.66,0,7a17.09,17.09,0,0,1-.23,3.56,6.38,6.38,0,0,1-.58,1.76,3,3,0,0,1-1.36,1.38,3.59,3.59,0,0,1-3.64-.68,7.08,7.08,0,0,1-1.84-3.15,36.27,36.27,0,0,1-1.22-7c-.43-4.67-.72-9.34-.9-14s-.32-9.33-.72-14c-.18-2.33-.48-4.63-.73-7a68.83,68.83,0,0,1-.38-7c-.08-4.69.28-9.37.61-14s.9-9.31,1.35-14,.9-9.31,1.43-13.95,1.1-9.31,1.54-13.92c.12-2.32.19-4.65.15-7s-.24-4.64-.37-7a108,108,0,0,1,.24-14.05A136.52,136.52,0,0,1,13.64,309c.81-4.62,1.95-9.18,3.21-13.68.63-2.26,1.28-4.51,2-6.74s1.5-4.44,2.24-6.65a82.65,82.65,0,0,0,3.38-13.53c.8-4.6,1.52-9.22,2.23-13.84s1.34-9.24,2-13.88a120.74,120.74,0,0,1,2.54-13.82c2.28-9.1,5.31-17.95,8.17-26.85q2.18-6.66,4.45-13.3c1.48-4.43,3.2-8.8,3.95-13.37a50.43,50.43,0,0,0,.71-6.91c0-2.31-.16-4.64-.3-7q-.45-7-.75-14t-.42-14c-.07-4.68,0-9.35-.24-14s-.53-9.32-1-14-1.06-9.28-1.66-13.91L40.4,61.73a249.5,249.5,0,0,1-2.17-28,87.21,87.21,0,0,1,.55-14.07,21.49,21.49,0,0,1,2.16-6.78,18.09,18.09,0,0,1,2-3,15.1,15.1,0,0,1,1.17-1.35,13.72,13.72,0,0,1,1.28-1.25A28.79,28.79,0,0,1,58,1.07,41.71,41.71,0,0,1,72-.28,40.4,40.4,0,0,1,85.6,3.47,31.49,31.49,0,0,1,91.76,7a9,9,0,0,1,2.42,2.74,6.6,6.6,0,0,1,.75,3.62,18.22,18.22,0,0,1-2.48,6.7,60.54,60.54,0,0,1-3.75,6,61.47,61.47,0,0,1-4.42,5.5c-1.57,1.77-3.27,3.38-4.93,5C76,39.83,72.64,43.07,69.26,46.3s-6.69,6.5-9.84,9.94-6.18,7-9.1,10.63a119.63,119.63,0,0,0-8.21,11.3c-2.56,3.93-5.34,7.72-8.22,11.4l-4.37,5.5a41.92,41.92,0,0,0-4,5.64,21.74,21.74,0,0,0-2.18,6.48,28.73,28.73,0,0,0-.39,6.87,32.52,32.52,0,0,0,1.13,6.81,36.59,36.59,0,0,0,2.54,6.43,26.63,26.63,0,0,0,8.86,10.32,3.4,3.4,0,0,0,1.41.54.53.53,0,0,0,.45-.15,1.08,1.08,0,0,0,.26-.56,3.57,3.57,0,0,0-.06-1.52,3.63,3.63,0,0,0-.73-1.35c-.32-.39-.79-.66-1-.53a2,2,0,0,0-.75,1.11,11.68,11.68,0,0,0-.51,3.31v.06l0,0a140.64,140.64,0,0,0-4.12,40.2c.26,6.76,1,13.49,1.73,20.22.35,3.37.88,6.71,1.33,10.07l1.39,10.08,2.76,20.16.69,5c.16,1.71.25,3.38.4,5.07q.41,5.07.92,10.12l.55,5a19.62,19.62,0,0,0,1,4.86,14.16,14.16,0,0,0,2.46,4.23,10.91,10.91,0,0,0,3.74,3.06,20.89,20.89,0,0,0,9.72,1.46A41,41,0,0,0,67,276.33l0,0c6.39-2.14,12.56-4.52,18.72-7.09s12.2-5.37,18.09-8.45c3-1.54,5.85-3.18,8.69-4.89l8.51-5.28,17-10.59-.14.71a88.18,88.18,0,0,1-10.52-21.1,77.15,77.15,0,0,1-4-23.22,110.55,110.55,0,0,1,.49-11.8,105.56,105.56,0,0,1,2-11.64c1.69-7.67,3.8-15.23,6-22.76q1.67-5.64,3.52-11.23c1.24-3.72,2.41-7.44,3.42-11.22,2-7.56,3.77-15.19,5.1-22.9a193.73,193.73,0,0,0,2.67-23.29c.24-3.91.56-7.84,1.15-11.74s1.4-7.74,2.35-11.56a65,65,0,0,1,3.87-11.17,55.55,55.55,0,0,1,6-10.19,36.16,36.16,0,0,1,3.92-4.47A19.5,19.5,0,0,1,168.6,29a20.1,20.1,0,0,1,11.77-1.38,55,55,0,0,1,5.8,1.26,39.11,39.11,0,0,1,5.56,2.08A56,56,0,0,1,201.87,37a75.84,75.84,0,0,1,16.35,17,99.1,99.1,0,0,1,10.9,20.89,91,91,0,0,1,5.62,22.88c.43,3.93.35,7.87.55,11.76a111.07,111.07,0,0,0,1.2,11.65c.59,3.85,1.48,7.66,2.4,11.46s1.85,7.62,2.71,11.45c1.75,7.64,3.24,15.36,4.45,23.11.62,3.87,1.19,7.74,1.9,11.59s1.56,7.66,2.54,11.44,2.06,7.55,3.14,11.32l3.22,11.31c1.12,3.76,2,7.57,3,11.36l2.95,11.38c1,3.78,2,7.57,3.11,11.32s2,7.62,2.76,11.47,1.26,7.76,1.82,11.63,1.18,7.73,1.91,11.58c.36,1.92.74,3.84,1.18,5.74s1,3.78,1.42,5.7c.91,3.82,1.66,7.68,2.38,11.53q2.15,11.58,3.47,23.28c.43,3.9.82,7.81,1.06,11.72l.58,11.76c.22,3.92.35,7.83.32,11.76,0,1,0,2,0,2.92s.17,1.93.29,2.89a48.17,48.17,0,0,0,1.12,5.72c.49,1.88,1.11,3.74,1.6,5.66a32.24,32.24,0,0,1,.94,5.86,36.57,36.57,0,0,1-.91,11.79c-1.92,7.8-7.11,14.14-11.2,20.66-2,3.36-3.68,6.92-5.91,10.17l-3.14,5a13,13,0,0,1-4,4.42,7.8,7.8,0,0,1-1.38.71,2.9,2.9,0,0,1-.82.19,1.36,1.36,0,0,1-.51-.06,1,1,0,0,1-.46-.34,2.45,2.45,0,0,1-.31-1.69,11.87,11.87,0,0,1,.22-1.49c.39-1.95.85-3.84,1.32-5.76a13.48,13.48,0,0,1,2.51-5.43,45.21,45.21,0,0,0,3.24-4.83,17.13,17.13,0,0,0,2.06-5.36,14.14,14.14,0,0,1,1-2.83,6.55,6.55,0,0,0,.85-2.64,7.61,7.61,0,0,0-.33-2.78l-.77-2.83c-.52-1.89-1-3.77-1.48-5.69l-1.35-5.73a14.25,14.25,0,0,0-.83-2.73,8.43,8.43,0,0,0-1.69-2.23,7.28,7.28,0,0,0-1.08-.86c-.36-.24-.85-.39-1-.28s-.24.58-.22,1,0,.95.06,1.46l.09,5.89,0,2.94a26.77,26.77,0,0,1-.2,3c-.25,2-.61,3.88-1,5.83a23.38,23.38,0,0,1-1.91,5.63c-.21.45-.41.9-.67,1.34a3.55,3.55,0,0,1-.47.67,1.16,1.16,0,0,1-.92.43,1.36,1.36,0,0,1-.87-.45,3.42,3.42,0,0,1-.5-.65,9.19,9.19,0,0,1-.68-1.37,41.42,41.42,0,0,1-1.68-5.68c-.46-1.9-.86-3.85-1.13-5.8-.56-3.89-.94-7.8-1.3-11.7-.17-2-.34-3.91-.46-5.87-.06-1-.12-2-.09-3s.11-2,.21-3a71.83,71.83,0,0,1,2.47-11.54,47.36,47.36,0,0,1,4.58-10.88,23.64,23.64,0,0,0,2.26-5.32,29.08,29.08,0,0,0,.95-5.72c.68-7.85-3-15.15-5.11-22.65a143.78,143.78,0,0,0-8.51-21.84c-3.26-7.14-6.13-14.46-8.8-21.82q-2.06-5.51-4.37-10.9l-4.57-10.82c-1.51-3.62-3.24-7.13-4.86-10.7a63.05,63.05,0,0,1-4-11.08c-.54-1.91-.77-3.88-1.18-5.78s-.8-3.82-1.27-5.72c-.94-3.8-2-7.56-3.12-11.32-4.44-15-9.22-30-14.06-44.85l-1.81-5.59q-1-2.74-2.13-5.47c-.74-1.81-1.48-3.64-2.05-5.53s-1-3.79-1.51-5.7a32.13,32.13,0,0,1,2.33-23.08,34.23,34.23,0,0,1,7.16-9.39,31.9,31.9,0,0,1,4.66-3.67,10.89,10.89,0,0,1,2.72-1.32,1.81,1.81,0,0,1,.88-.05.67.67,0,0,1,.47.4,1.06,1.06,0,0,1,.07.51,4.91,4.91,0,0,1-.47,1.49,38.32,38.32,0,0,1-3.09,5.07,33,33,0,0,1-3.82,4.52,81.51,81.51,0,0,1-9.08,7.53,100.16,100.16,0,0,0-17.56,15.45,86,86,0,0,0-7.15,9.28c-1.1,1.61-2.22,3.22-3.26,4.87s-2,3.34-3,5c-3.94,6.76-7.86,13.56-11.7,20.38-.94,1.72-1.89,3.43-2.72,5.19a56.8,56.8,0,0,0-2.1,5.45A32.59,32.59,0,0,0,144.18,202a29.3,29.3,0,0,0,2.54,11.28,39.66,39.66,0,0,0,2.76,5.14,32.89,32.89,0,0,0,3.6,4.57c1.33,1.42,2.74,2.77,4.17,4.12s2.84,2.68,4.32,4q4.43,3.85,9.16,7.33c3.15,2.32,6.38,4.52,9.72,6.57a77,77,0,0,1,9.53,6.93c3,2.53,5.86,5.23,8.67,8s5.44,5.66,8.1,8.53,5.35,5.72,8.14,8.47c1.39,1.37,2.83,2.69,4.24,4.06s2.73,2.84,4,4.33a106.67,106.67,0,0,1,7.26,9.28,74,74,0,0,1,5.86,10.22,61.63,61.63,0,0,1,4.25,11,47.43,47.43,0,0,1,1.65,11.67c0,2-.06,3.94-.14,5.89s-.18,3.92-.33,5.88a43.76,43.76,0,0,1-2.1,11.6,28.59,28.59,0,0,1-6,10.15,33.71,33.71,0,0,1-9.33,7.2,36.77,36.77,0,0,1-11.23,3.59c-1.94.3-3.89.57-5.86.68a55.29,55.29,0,0,1-5.9,0,116.42,116.42,0,0,1-23.25-3.57c-3.8-.92-7.62-1.82-11.43-2.7-1.91-.43-3.82-.88-5.74-1.27l-.71-.12-.32,0a2.18,2.18,0,0,1-.39,0c-.52-.05-1-.15-1.48-.24l-2.88-.6h0c-2.16-.38-4.23-.56-6.37-.73a13.67,13.67,0,0,0-6.19.76,3.33,3.33,0,0,0-1.32,5,9,9,0,0,0,2.57,1.74,19.6,19.6,0,0,0,2.88,1.31,14.69,14.69,0,0,0,3.06.74c.52.07,1.06.1,1.58.15A14.1,14.1,0,0,0,153,373a31.24,31.24,0,0,0,6.33-.47,35.69,35.69,0,0,0,11.85-4.29l0,0a29.08,29.08,0,0,0,8.51-8.51,46,46,0,0,0,5.12-11,60.34,60.34,0,0,0,3.5-23.93,63,63,0,0,0-6-23.44A54.44,54.44,0,0,0,175.91,291c-.62-.8-1.31-1.55-2-2.32l-2.13-2.17c-.36-.36-.71-.73-1.08-1.08l-1.16-1c-.78-.64-1.53-1.33-2.34-1.94a56.4,56.4,0,0,0-10.47-6.16,67,67,0,0,0-11.55-3.8c-7.92-1.89-16.09-2.32-24.21-2.42a98.23,98.23,0,0,0-24.14,2.93,85.53,85.53,0,0,0-22.52,9.14l-2.61,1.57-2.5,1.74c-1.68,1.14-3.31,2.37-4.88,3.65a46.57,46.57,0,0,0-8.51,8.67A21,21,0,0,0,51.58,309a29.8,29.8,0,0,0,1.19,12A23.8,23.8,0,0,0,54,323.86a25.83,25.83,0,0,1,1.13,2.84,24.94,24.94,0,0,1,1.13,6,47.77,47.77,0,0,1-.2,6.1l-.39,6.09L54.1,369.26Z"/>
    <path d="M37.08,433.25c3-.32,5.91-.44,8.86-.48s5.9,0,8.86.17l-.25.12a.43.43,0,0,0,0-.55,2.57,2.57,0,0,0-.54-.67,9.67,9.67,0,0,0-1.49-1.09,7.22,7.22,0,0,1,1.71.81,2.71,2.71,0,0,1,.75.69,1.11,1.11,0,0,1,.21.56c0,.11,0,.23,0,.34a2.64,2.64,0,0,1-.15.29l-.06.11H54.8c-3,.18-5.91.22-8.86.18S40,433.57,37.08,433.25Z"/>
    <path d="M38.53,433.25c2,.84,3.95,1.71,5.89,2.62s3.89,1.83,5.82,2.77c.95.46,1.94,1,2.85,1.39a6.71,6.71,0,0,0,2.93.49,5.5,5.5,0,0,0,2.8-.78c.68-.48.8-1.62.84-2.62l.09.22c-.75-.88-1.52-1.74-2.26-2.64s-1.49-1.78-2.2-2.7c.85.79,1.68,1.61,2.51,2.41s1.64,1.64,2.46,2.46l.08.09v.14a7.38,7.38,0,0,1-.09,1.69,3.45,3.45,0,0,1-.28.88,2.61,2.61,0,0,1-.61.75,4.15,4.15,0,0,1-1.61.78,9.57,9.57,0,0,1-1.67.29,7.59,7.59,0,0,1-3.37-.53c-1.07-.47-1.94-1-2.92-1.46q-2.86-1.49-5.67-3.05C42.24,435.43,40.38,434.36,38.53,433.25Z"/>
  </g>
</svg>
